[gd_scene load_steps=4 format=2]

[ext_resource path="res://assets/foreground.png" type="Texture" id=1]

[sub_resource type="QuadMesh" id=1]
size = Vector2( 10.24, 1.92 )

[sub_resource type="SpatialMaterial" id=2]
params_cull_mode = 2
params_depth_draw_mode = 3
params_use_alpha_scissor = true
params_alpha_scissor_threshold = 0.98
albedo_texture = ExtResource( 1 )
metallic = 0.7
roughness = 0.7

[node name="Forground" type="Spatial"]

[node name="MeshInstance" type="MeshInstance" parent="."]
transform = Transform( 1, 0, 0, 0, 1, 0, 0, 0, 1, 5.12, 0.96, 0 )
mesh = SubResource( 1 )
material/0 = SubResource( 2 )
