# MagicaVoxel @ Ephtracy

# group
o 

# material
mtllib crate-0.mtl
usemtl palette

# normals
vn -1 0 0
vn 1 0 0
vn 0 0 1
vn 0 0 -1
vn 0 -1 0
vn 0 1 0

# texcoords
vt 0.537109 0.5
vt 0.701172 0.5

# verts
v -0.8 -0.8 0.8
v -0.8 -0.8 -0.8
v -0.8 -0.6 0.4
v -0.8 -0.6 -0.4
v -0.8 -0.5 0.4
v -0.8 -0.5 0.3
v -0.8 -0.5 -0.3
v -0.8 -0.5 -0.4
v -0.8 -0.4 0.6
v -0.8 -0.4 0.5
v -0.8 -0.4 0.3
v -0.8 -0.4 0.2
v -0.8 -0.4 -0.2
v -0.8 -0.4 -0.3
v -0.8 -0.4 -0.5
v -0.8 -0.4 -0.6
v -0.8 -0.3 0.5
v -0.8 -0.3 0.4
v -0.8 -0.3 0.2
v -0.8 -0.3 0.1
v -0.8 -0.3 -0.1
v -0.8 -0.3 -0.2
v -0.8 -0.3 -0.4
v -0.8 -0.3 -0.5
v -0.8 -0.2 0.4
v -0.8 -0.2 0.3
v -0.8 -0.2 0.1
v -0.8 -0.2 -0.1
v -0.8 -0.2 -0.3
v -0.8 -0.2 -0.4
v -0.8 -0.1 0.3
v -0.8 -0.1 0.2
v -0.8 -0.1 -0.2
v -0.8 -0.1 -0.3
v -0.8 0.1 0.3
v -0.8 0.1 0.2
v -0.8 0.1 -0.2
v -0.8 0.1 -0.3
v -0.8 0.2 0.4
v -0.8 0.2 0.3
v -0.8 0.2 0.1
v -0.8 0.2 -0.1
v -0.8 0.2 -0.3
v -0.8 0.2 -0.4
v -0.8 0.3 0.5
v -0.8 0.3 0.4
v -0.8 0.3 0.2
v -0.8 0.3 0.1
v -0.8 0.3 -0.1
v -0.8 0.3 -0.2
v -0.8 0.3 -0.4
v -0.8 0.3 -0.5
v -0.8 0.4 0.6
v -0.8 0.4 0.5
v -0.8 0.4 0.3
v -0.8 0.4 0.2
v -0.8 0.4 -0.2
v -0.8 0.4 -0.3
v -0.8 0.4 -0.5
v -0.8 0.4 -0.6
v -0.8 0.5 0.4
v -0.8 0.5 0.3
v -0.8 0.5 -0.3
v -0.8 0.5 -0.4
v -0.8 0.6 0.4
v -0.8 0.6 -0.4
v -0.8 0.8 0.8
v -0.8 0.8 -0.8
v -0.7 -0.6 0.4
v -0.7 -0.6 -0.4
v -0.7 -0.5 0.4
v -0.7 -0.5 0.3
v -0.7 -0.5 -0.3
v -0.7 -0.5 -0.4
v -0.7 -0.4 0.6
v -0.7 -0.4 0.5
v -0.7 -0.4 0.3
v -0.7 -0.4 0.2
v -0.7 -0.4 -0.2
v -0.7 -0.4 -0.3
v -0.7 -0.4 -0.5
v -0.7 -0.4 -0.6
v -0.7 -0.3 0.5
v -0.7 -0.3 0.4
v -0.7 -0.3 0.2
v -0.7 -0.3 0.1
v -0.7 -0.3 -0.1
v -0.7 -0.3 -0.2
v -0.7 -0.3 -0.4
v -0.7 -0.3 -0.5
v -0.7 -0.2 0.4
v -0.7 -0.2 0.3
v -0.7 -0.2 0.1
v -0.7 -0.2 -0.1
v -0.7 -0.2 -0.3
v -0.7 -0.2 -0.4
v -0.7 -0.1 0.3
v -0.7 -0.1 0.2
v -0.7 -0.1 -0.2
v -0.7 -0.1 -0.3
v -0.7 0.1 0.3
v -0.7 0.1 0.2
v -0.7 0.1 -0.2
v -0.7 0.1 -0.3
v -0.7 0.2 0.4
v -0.7 0.2 0.3
v -0.7 0.2 0.1
v -0.7 0.2 -0.1
v -0.7 0.2 -0.3
v -0.7 0.2 -0.4
v -0.7 0.3 0.5
v -0.7 0.3 0.4
v -0.7 0.3 0.2
v -0.7 0.3 0.1
v -0.7 0.3 -0.1
v -0.7 0.3 -0.2
v -0.7 0.3 -0.4
v -0.7 0.3 -0.5
v -0.7 0.4 0.6
v -0.7 0.4 0.5
v -0.7 0.4 0.3
v -0.7 0.4 0.2
v -0.7 0.4 -0.2
v -0.7 0.4 -0.3
v -0.7 0.4 -0.5
v -0.7 0.4 -0.6
v -0.7 0.5 0.4
v -0.7 0.5 0.3
v -0.7 0.5 -0.3
v -0.7 0.5 -0.4
v -0.7 0.6 0.4
v -0.7 0.6 -0.4
v -0.5 -0.4 0.8
v -0.5 -0.4 0.7
v -0.5 -0.3 0.8
v -0.5 -0.3 0.7
v -0.5 0.3 0.8
v -0.5 0.3 0.7
v -0.5 0.4 0.8
v -0.5 0.4 0.7
v -0.5 0.7 0.4
v -0.5 0.7 0.3
v -0.5 0.7 -0.3
v -0.5 0.7 -0.4
v -0.5 0.8 0.4
v -0.5 0.8 0.3
v -0.5 0.8 -0.3
v -0.5 0.8 -0.4
v -0.4 -0.3 0.8
v -0.4 -0.3 0.7
v -0.4 -0.2 0.8
v -0.4 -0.2 0.7
v -0.4 0.2 0.8
v -0.4 0.2 0.7
v -0.4 0.3 0.8
v -0.4 0.3 0.7
v -0.4 0.7 0.3
v -0.4 0.7 0.2
v -0.4 0.7 -0.2
v -0.4 0.7 -0.3
v -0.4 0.8 0.3
v -0.4 0.8 0.2
v -0.4 0.8 -0.2
v -0.4 0.8 -0.3
v -0.3 -0.2 0.8
v -0.3 -0.2 0.7
v -0.3 -0.1 0.8
v -0.3 -0.1 0.7
v -0.3 0.1 0.8
v -0.3 0.1 0.7
v -0.3 0.2 0.8
v -0.3 0.2 0.7
v -0.3 0.7 0.2
v -0.3 0.7 0.1
v -0.3 0.7 -0.1
v -0.3 0.7 -0.2
v -0.3 0.8 0.2
v -0.3 0.8 0.1
v -0.3 0.8 -0.1
v -0.3 0.8 -0.2
v -0.2 -0.1 0.8
v -0.2 -0.1 0.7
v -0.2 0.1 0.8
v -0.2 0.1 0.7
v -0.2 0.7 0.1
v -0.2 0.7 -0.1
v -0.2 0.8 0.1
v -0.2 0.8 -0.1
v 0.1 -0.3 0.8
v 0.1 -0.3 0.7
v 0.1 -0.2 0.8
v 0.1 -0.2 0.7
v 0.1 0.2 0.8
v 0.1 0.2 0.7
v 0.1 0.3 0.8
v 0.1 0.3 0.7
v 0.1 0.7 0.3
v 0.1 0.7 0.2
v 0.1 0.7 -0.2
v 0.1 0.7 -0.3
v 0.1 0.8 0.3
v 0.1 0.8 0.2
v 0.1 0.8 -0.2
v 0.1 0.8 -0.3
v 0.2 -0.4 0.8
v 0.2 -0.4 0.7
v 0.2 -0.3 0.8
v 0.2 -0.3 0.7
v 0.2 0.3 0.8
v 0.2 0.3 0.7
v 0.2 0.4 0.8
v 0.2 0.4 0.7
v 0.2 0.7 0.4
v 0.2 0.7 0.3
v 0.2 0.7 -0.3
v 0.2 0.7 -0.4
v 0.2 0.8 0.4
v 0.2 0.8 0.3
v 0.2 0.8 -0.3
v 0.2 0.8 -0.4
v 0.3 -0.5 0.8
v 0.3 -0.5 0.7
v 0.3 -0.4 0.8
v 0.3 -0.4 0.7
v 0.3 0.4 0.8
v 0.3 0.4 0.7
v 0.3 0.5 0.8
v 0.3 0.5 0.7
v 0.3 0.7 0.5
v 0.3 0.7 0.4
v 0.3 0.7 -0.4
v 0.3 0.7 -0.5
v 0.3 0.8 0.5
v 0.3 0.8 0.4
v 0.3 0.8 -0.4
v 0.3 0.8 -0.5
v 0.4 -0.6 0.8
v 0.4 -0.6 0.7
v 0.4 -0.5 0.8
v 0.4 -0.5 0.7
v 0.4 0.5 0.8
v 0.4 0.5 0.7
v 0.4 0.6 0.8
v 0.4 0.6 0.7
v 0.4 0.7 0.6
v 0.4 0.7 0.5
v 0.4 0.7 -0.5
v 0.4 0.7 -0.6
v 0.4 0.8 0.6
v 0.4 0.8 0.5
v 0.4 0.8 -0.5
v 0.4 0.8 -0.6
v 0.6 -0.4 0.8
v 0.6 -0.4 0.7
v 0.6 0.4 0.8
v 0.6 0.4 0.7
v 0.6 0.7 0.4
v 0.6 0.7 -0.4
v 0.6 0.8 0.4
v 0.6 0.8 -0.4
v -0.6 -0.4 0.8
v -0.6 -0.4 0.7
v -0.6 0.4 0.8
v -0.6 0.4 0.7
v -0.6 0.7 0.4
v -0.6 0.7 -0.4
v -0.6 0.8 0.4
v -0.6 0.8 -0.4
v -0.4 -0.6 0.8
v -0.4 -0.6 0.7
v -0.4 -0.5 0.8
v -0.4 -0.5 0.7
v -0.4 0.5 0.8
v -0.4 0.5 0.7
v -0.4 0.6 0.8
v -0.4 0.6 0.7
v -0.4 0.7 0.6
v -0.4 0.7 0.5
v -0.4 0.7 -0.5
v -0.4 0.7 -0.6
v -0.4 0.8 0.6
v -0.4 0.8 0.5
v -0.4 0.8 -0.5
v -0.4 0.8 -0.6
v -0.3 -0.5 0.8
v -0.3 -0.5 0.7
v -0.3 -0.4 0.8
v -0.3 -0.4 0.7
v -0.3 0.4 0.8
v -0.3 0.4 0.7
v -0.3 0.5 0.8
v -0.3 0.5 0.7
v -0.3 0.7 0.5
v -0.3 0.7 0.4
v -0.3 0.7 -0.4
v -0.3 0.7 -0.5
v -0.3 0.8 0.5
v -0.3 0.8 0.4
v -0.3 0.8 -0.4
v -0.3 0.8 -0.5
v -0.2 -0.4 0.8
v -0.2 -0.4 0.7
v -0.2 -0.3 0.8
v -0.2 -0.3 0.7
v -0.2 0.3 0.8
v -0.2 0.3 0.7
v -0.2 0.4 0.8
v -0.2 0.4 0.7
v -0.2 0.7 0.4
v -0.2 0.7 0.3
v -0.2 0.7 -0.3
v -0.2 0.7 -0.4
v -0.2 0.8 0.4
v -0.2 0.8 0.3
v -0.2 0.8 -0.3
v -0.2 0.8 -0.4
v -0.1 -0.3 0.8
v -0.1 -0.3 0.7
v -0.1 -0.2 0.8
v -0.1 -0.2 0.7
v -0.1 0.2 0.8
v -0.1 0.2 0.7
v -0.1 0.3 0.8
v -0.1 0.3 0.7
v -0.1 0.7 0.3
v -0.1 0.7 0.2
v -0.1 0.7 -0.2
v -0.1 0.7 -0.3
v -0.1 0.8 0.3
v -0.1 0.8 0.2
v -0.1 0.8 -0.2
v -0.1 0.8 -0.3
v 0.2 -0.1 0.8
v 0.2 -0.1 0.7
v 0.2 0.1 0.8
v 0.2 0.1 0.7
v 0.2 0.7 0.1
v 0.2 0.7 -0.1
v 0.2 0.8 0.1
v 0.2 0.8 -0.1
v 0.3 -0.2 0.8
v 0.3 -0.2 0.7
v 0.3 -0.1 0.8
v 0.3 -0.1 0.7
v 0.3 0.1 0.8
v 0.3 0.1 0.7
v 0.3 0.2 0.8
v 0.3 0.2 0.7
v 0.3 0.7 0.2
v 0.3 0.7 0.1
v 0.3 0.7 -0.1
v 0.3 0.7 -0.2
v 0.3 0.8 0.2
v 0.3 0.8 0.1
v 0.3 0.8 -0.1
v 0.3 0.8 -0.2
v 0.4 -0.3 0.8
v 0.4 -0.3 0.7
v 0.4 -0.2 0.8
v 0.4 -0.2 0.7
v 0.4 0.2 0.8
v 0.4 0.2 0.7
v 0.4 0.3 0.8
v 0.4 0.3 0.7
v 0.4 0.7 0.3
v 0.4 0.7 0.2
v 0.4 0.7 -0.2
v 0.4 0.7 -0.3
v 0.4 0.8 0.3
v 0.4 0.8 0.2
v 0.4 0.8 -0.2
v 0.4 0.8 -0.3
v 0.5 -0.4 0.8
v 0.5 -0.4 0.7
v 0.5 -0.3 0.8
v 0.5 -0.3 0.7
v 0.5 0.3 0.8
v 0.5 0.3 0.7
v 0.5 0.4 0.8
v 0.5 0.4 0.7
v 0.5 0.7 0.4
v 0.5 0.7 0.3
v 0.5 0.7 -0.3
v 0.5 0.7 -0.4
v 0.5 0.8 0.4
v 0.5 0.8 0.3
v 0.5 0.8 -0.3
v 0.5 0.8 -0.4
v 0.7 -0.6 0.4
v 0.7 -0.6 -0.4
v 0.7 -0.5 0.4
v 0.7 -0.5 0.3
v 0.7 -0.5 -0.3
v 0.7 -0.5 -0.4
v 0.7 -0.4 0.6
v 0.7 -0.4 0.5
v 0.7 -0.4 0.3
v 0.7 -0.4 0.2
v 0.7 -0.4 -0.2
v 0.7 -0.4 -0.3
v 0.7 -0.4 -0.5
v 0.7 -0.4 -0.6
v 0.7 -0.3 0.5
v 0.7 -0.3 0.4
v 0.7 -0.3 0.2
v 0.7 -0.3 0.1
v 0.7 -0.3 -0.1
v 0.7 -0.3 -0.2
v 0.7 -0.3 -0.4
v 0.7 -0.3 -0.5
v 0.7 -0.2 0.4
v 0.7 -0.2 0.3
v 0.7 -0.2 0.1
v 0.7 -0.2 -0.1
v 0.7 -0.2 -0.3
v 0.7 -0.2 -0.4
v 0.7 -0.1 0.3
v 0.7 -0.1 0.2
v 0.7 -0.1 -0.2
v 0.7 -0.1 -0.3
v 0.7 0.1 0.3
v 0.7 0.1 0.2
v 0.7 0.1 -0.2
v 0.7 0.1 -0.3
v 0.7 0.2 0.4
v 0.7 0.2 0.3
v 0.7 0.2 0.1
v 0.7 0.2 -0.1
v 0.7 0.2 -0.3
v 0.7 0.2 -0.4
v 0.7 0.3 0.5
v 0.7 0.3 0.4
v 0.7 0.3 0.2
v 0.7 0.3 0.1
v 0.7 0.3 -0.1
v 0.7 0.3 -0.2
v 0.7 0.3 -0.4
v 0.7 0.3 -0.5
v 0.7 0.4 0.6
v 0.7 0.4 0.5
v 0.7 0.4 0.3
v 0.7 0.4 0.2
v 0.7 0.4 -0.2
v 0.7 0.4 -0.3
v 0.7 0.4 -0.5
v 0.7 0.4 -0.6
v 0.7 0.5 0.4
v 0.7 0.5 0.3
v 0.7 0.5 -0.3
v 0.7 0.5 -0.4
v 0.7 0.6 0.4
v 0.7 0.6 -0.4
v 0.8 -0.8 0.8
v 0.8 -0.8 -0.8
v 0.8 -0.6 0.4
v 0.8 -0.6 -0.4
v 0.8 -0.5 0.4
v 0.8 -0.5 0.3
v 0.8 -0.5 -0.3
v 0.8 -0.5 -0.4
v 0.8 -0.4 0.6
v 0.8 -0.4 0.5
v 0.8 -0.4 0.3
v 0.8 -0.4 0.2
v 0.8 -0.4 -0.2
v 0.8 -0.4 -0.3
v 0.8 -0.4 -0.5
v 0.8 -0.4 -0.6
v 0.8 -0.3 0.5
v 0.8 -0.3 0.4
v 0.8 -0.3 0.2
v 0.8 -0.3 0.1
v 0.8 -0.3 -0.1
v 0.8 -0.3 -0.2
v 0.8 -0.3 -0.4
v 0.8 -0.3 -0.5
v 0.8 -0.2 0.4
v 0.8 -0.2 0.3
v 0.8 -0.2 0.1
v 0.8 -0.2 -0.1
v 0.8 -0.2 -0.3
v 0.8 -0.2 -0.4
v 0.8 -0.1 0.3
v 0.8 -0.1 0.2
v 0.8 -0.1 -0.2
v 0.8 -0.1 -0.3
v 0.8 0.1 0.3
v 0.8 0.1 0.2
v 0.8 0.1 -0.2
v 0.8 0.1 -0.3
v 0.8 0.2 0.4
v 0.8 0.2 0.3
v 0.8 0.2 0.1
v 0.8 0.2 -0.1
v 0.8 0.2 -0.3
v 0.8 0.2 -0.4
v 0.8 0.3 0.5
v 0.8 0.3 0.4
v 0.8 0.3 0.2
v 0.8 0.3 0.1
v 0.8 0.3 -0.1
v 0.8 0.3 -0.2
v 0.8 0.3 -0.4
v 0.8 0.3 -0.5
v 0.8 0.4 0.6
v 0.8 0.4 0.5
v 0.8 0.4 0.3
v 0.8 0.4 0.2
v 0.8 0.4 -0.2
v 0.8 0.4 -0.3
v 0.8 0.4 -0.5
v 0.8 0.4 -0.6
v 0.8 0.5 0.4
v 0.8 0.5 0.3
v 0.8 0.5 -0.3
v 0.8 0.5 -0.4
v 0.8 0.6 0.4
v 0.8 0.6 -0.4
v 0.8 0.8 0.8
v 0.8 0.8 -0.8
v -0.8 -0.8 0.8
v -0.8 0.8 0.8
v -0.6 -0.4 0.8
v -0.6 0.4 0.8
v -0.5 -0.4 0.8
v -0.5 -0.3 0.8
v -0.5 0.3 0.8
v -0.5 0.4 0.8
v -0.4 -0.6 0.8
v -0.4 -0.5 0.8
v -0.4 -0.3 0.8
v -0.4 -0.2 0.8
v -0.4 0.2 0.8
v -0.4 0.3 0.8
v -0.4 0.5 0.8
v -0.4 0.6 0.8
v -0.3 -0.5 0.8
v -0.3 -0.4 0.8
v -0.3 -0.2 0.8
v -0.3 -0.1 0.8
v -0.3 0.1 0.8
v -0.3 0.2 0.8
v -0.3 0.4 0.8
v -0.3 0.5 0.8
v -0.2 -0.4 0.8
v -0.2 -0.3 0.8
v -0.2 -0.1 0.8
v -0.2 0.1 0.8
v -0.2 0.3 0.8
v -0.2 0.4 0.8
v -0.1 -0.3 0.8
v -0.1 -0.2 0.8
v -0.1 0.2 0.8
v -0.1 0.3 0.8
v 0.1 -0.3 0.8
v 0.1 -0.2 0.8
v 0.1 0.2 0.8
v 0.1 0.3 0.8
v 0.2 -0.4 0.8
v 0.2 -0.3 0.8
v 0.2 -0.1 0.8
v 0.2 0.1 0.8
v 0.2 0.3 0.8
v 0.2 0.4 0.8
v 0.3 -0.5 0.8
v 0.3 -0.4 0.8
v 0.3 -0.2 0.8
v 0.3 -0.1 0.8
v 0.3 0.1 0.8
v 0.3 0.2 0.8
v 0.3 0.4 0.8
v 0.3 0.5 0.8
v 0.4 -0.6 0.8
v 0.4 -0.5 0.8
v 0.4 -0.3 0.8
v 0.4 -0.2 0.8
v 0.4 0.2 0.8
v 0.4 0.3 0.8
v 0.4 0.5 0.8
v 0.4 0.6 0.8
v 0.5 -0.4 0.8
v 0.5 -0.3 0.8
v 0.5 0.3 0.8
v 0.5 0.4 0.8
v 0.6 -0.4 0.8
v 0.6 0.4 0.8
v 0.8 -0.8 0.8
v 0.8 0.8 0.8
v -0.6 -0.4 0.7
v -0.6 0.4 0.7
v -0.5 -0.4 0.7
v -0.5 -0.3 0.7
v -0.5 0.3 0.7
v -0.5 0.4 0.7
v -0.4 -0.6 0.7
v -0.4 -0.5 0.7
v -0.4 -0.3 0.7
v -0.4 -0.2 0.7
v -0.4 0.2 0.7
v -0.4 0.3 0.7
v -0.4 0.5 0.7
v -0.4 0.6 0.7
v -0.3 -0.5 0.7
v -0.3 -0.4 0.7
v -0.3 -0.2 0.7
v -0.3 -0.1 0.7
v -0.3 0.1 0.7
v -0.3 0.2 0.7
v -0.3 0.4 0.7
v -0.3 0.5 0.7
v -0.2 -0.4 0.7
v -0.2 -0.3 0.7
v -0.2 -0.1 0.7
v -0.2 0.1 0.7
v -0.2 0.3 0.7
v -0.2 0.4 0.7
v -0.1 -0.3 0.7
v -0.1 -0.2 0.7
v -0.1 0.2 0.7
v -0.1 0.3 0.7
v 0.1 -0.3 0.7
v 0.1 -0.2 0.7
v 0.1 0.2 0.7
v 0.1 0.3 0.7
v 0.2 -0.4 0.7
v 0.2 -0.3 0.7
v 0.2 -0.1 0.7
v 0.2 0.1 0.7
v 0.2 0.3 0.7
v 0.2 0.4 0.7
v 0.3 -0.5 0.7
v 0.3 -0.4 0.7
v 0.3 -0.2 0.7
v 0.3 -0.1 0.7
v 0.3 0.1 0.7
v 0.3 0.2 0.7
v 0.3 0.4 0.7
v 0.3 0.5 0.7
v 0.4 -0.6 0.7
v 0.4 -0.5 0.7
v 0.4 -0.3 0.7
v 0.4 -0.2 0.7
v 0.4 0.2 0.7
v 0.4 0.3 0.7
v 0.4 0.5 0.7
v 0.4 0.6 0.7
v 0.5 -0.4 0.7
v 0.5 -0.3 0.7
v 0.5 0.3 0.7
v 0.5 0.4 0.7
v 0.6 -0.4 0.7
v 0.6 0.4 0.7
v -0.8 -0.4 0.5
v -0.8 -0.3 0.5
v -0.8 0.3 0.5
v -0.8 0.4 0.5
v -0.7 -0.4 0.5
v -0.7 -0.3 0.5
v -0.7 0.3 0.5
v -0.7 0.4 0.5
v -0.4 0.7 0.5
v -0.4 0.8 0.5
v -0.3 0.7 0.5
v -0.3 0.8 0.5
v 0.3 0.7 0.5
v 0.3 0.8 0.5
v 0.4 0.7 0.5
v 0.4 0.8 0.5
v 0.7 -0.4 0.5
v 0.7 -0.3 0.5
v 0.7 0.3 0.5
v 0.7 0.4 0.5
v 0.8 -0.4 0.5
v 0.8 -0.3 0.5
v 0.8 0.3 0.5
v 0.8 0.4 0.5
v -0.8 -0.3 0.4
v -0.8 -0.2 0.4
v -0.8 0.2 0.4
v -0.8 0.3 0.4
v -0.7 -0.3 0.4
v -0.7 -0.2 0.4
v -0.7 0.2 0.4
v -0.7 0.3 0.4
v -0.3 0.7 0.4
v -0.3 0.8 0.4
v -0.2 0.7 0.4
v -0.2 0.8 0.4
v 0.2 0.7 0.4
v 0.2 0.8 0.4
v 0.3 0.7 0.4
v 0.3 0.8 0.4
v 0.7 -0.3 0.4
v 0.7 -0.2 0.4
v 0.7 0.2 0.4
v 0.7 0.3 0.4
v 0.8 -0.3 0.4
v 0.8 -0.2 0.4
v 0.8 0.2 0.4
v 0.8 0.3 0.4
v -0.8 -0.2 0.3
v -0.8 -0.1 0.3
v -0.8 0.1 0.3
v -0.8 0.2 0.3
v -0.7 -0.2 0.3
v -0.7 -0.1 0.3
v -0.7 0.1 0.3
v -0.7 0.2 0.3
v -0.2 0.7 0.3
v -0.2 0.8 0.3
v -0.1 0.7 0.3
v -0.1 0.8 0.3
v 0.1 0.7 0.3
v 0.1 0.8 0.3
v 0.2 0.7 0.3
v 0.2 0.8 0.3
v 0.7 -0.2 0.3
v 0.7 -0.1 0.3
v 0.7 0.1 0.3
v 0.7 0.2 0.3
v 0.8 -0.2 0.3
v 0.8 -0.1 0.3
v 0.8 0.1 0.3
v 0.8 0.2 0.3
v -0.8 -0.1 0.2
v -0.8 0.1 0.2
v -0.7 -0.1 0.2
v -0.7 0.1 0.2
v -0.1 0.7 0.2
v -0.1 0.8 0.2
v 0.1 0.7 0.2
v 0.1 0.8 0.2
v 0.7 -0.1 0.2
v 0.7 0.1 0.2
v 0.8 -0.1 0.2
v 0.8 0.1 0.2
v -0.8 -0.3 -0.1
v -0.8 -0.2 -0.1
v -0.8 0.2 -0.1
v -0.8 0.3 -0.1
v -0.7 -0.3 -0.1
v -0.7 -0.2 -0.1
v -0.7 0.2 -0.1
v -0.7 0.3 -0.1
v -0.3 0.7 -0.1
v -0.3 0.8 -0.1
v -0.2 0.7 -0.1
v -0.2 0.8 -0.1
v 0.2 0.7 -0.1
v 0.2 0.8 -0.1
v 0.3 0.7 -0.1
v 0.3 0.8 -0.1
v 0.7 -0.3 -0.1
v 0.7 -0.2 -0.1
v 0.7 0.2 -0.1
v 0.7 0.3 -0.1
v 0.8 -0.3 -0.1
v 0.8 -0.2 -0.1
v 0.8 0.2 -0.1
v 0.8 0.3 -0.1
v -0.8 -0.4 -0.2
v -0.8 -0.3 -0.2
v -0.8 0.3 -0.2
v -0.8 0.4 -0.2
v -0.7 -0.4 -0.2
v -0.7 -0.3 -0.2
v -0.7 0.3 -0.2
v -0.7 0.4 -0.2
v -0.4 0.7 -0.2
v -0.4 0.8 -0.2
v -0.3 0.7 -0.2
v -0.3 0.8 -0.2
v 0.3 0.7 -0.2
v 0.3 0.8 -0.2
v 0.4 0.7 -0.2
v 0.4 0.8 -0.2
v 0.7 -0.4 -0.2
v 0.7 -0.3 -0.2
v 0.7 0.3 -0.2
v 0.7 0.4 -0.2
v 0.8 -0.4 -0.2
v 0.8 -0.3 -0.2
v 0.8 0.3 -0.2
v 0.8 0.4 -0.2
v -0.8 -0.5 -0.3
v -0.8 -0.4 -0.3
v -0.8 0.4 -0.3
v -0.8 0.5 -0.3
v -0.7 -0.5 -0.3
v -0.7 -0.4 -0.3
v -0.7 0.4 -0.3
v -0.7 0.5 -0.3
v -0.5 0.7 -0.3
v -0.5 0.8 -0.3
v -0.4 0.7 -0.3
v -0.4 0.8 -0.3
v 0.4 0.7 -0.3
v 0.4 0.8 -0.3
v 0.5 0.7 -0.3
v 0.5 0.8 -0.3
v 0.7 -0.5 -0.3
v 0.7 -0.4 -0.3
v 0.7 0.4 -0.3
v 0.7 0.5 -0.3
v 0.8 -0.5 -0.3
v 0.8 -0.4 -0.3
v 0.8 0.4 -0.3
v 0.8 0.5 -0.3
v -0.8 -0.6 -0.4
v -0.8 -0.5 -0.4
v -0.8 0.5 -0.4
v -0.8 0.6 -0.4
v -0.7 -0.6 -0.4
v -0.7 -0.5 -0.4
v -0.7 0.5 -0.4
v -0.7 0.6 -0.4
v -0.6 0.7 -0.4
v -0.6 0.8 -0.4
v -0.5 0.7 -0.4
v -0.5 0.8 -0.4
v 0.5 0.7 -0.4
v 0.5 0.8 -0.4
v 0.6 0.7 -0.4
v 0.6 0.8 -0.4
v 0.7 -0.6 -0.4
v 0.7 -0.5 -0.4
v 0.7 0.5 -0.4
v 0.7 0.6 -0.4
v 0.8 -0.6 -0.4
v 0.8 -0.5 -0.4
v 0.8 0.5 -0.4
v 0.8 0.6 -0.4
v -0.8 -0.4 -0.6
v -0.8 0.4 -0.6
v -0.7 -0.4 -0.6
v -0.7 0.4 -0.6
v -0.4 0.7 -0.6
v -0.4 0.8 -0.6
v 0.4 0.7 -0.6
v 0.4 0.8 -0.6
v 0.7 -0.4 -0.6
v 0.7 0.4 -0.6
v 0.8 -0.4 -0.6
v 0.8 0.4 -0.6
v -0.8 -0.4 0.6
v -0.8 0.4 0.6
v -0.7 -0.4 0.6
v -0.7 0.4 0.6
v -0.4 0.7 0.6
v -0.4 0.8 0.6
v 0.4 0.7 0.6
v 0.4 0.8 0.6
v 0.7 -0.4 0.6
v 0.7 0.4 0.6
v 0.8 -0.4 0.6
v 0.8 0.4 0.6
v -0.8 -0.6 0.4
v -0.8 -0.5 0.4
v -0.8 0.5 0.4
v -0.8 0.6 0.4
v -0.7 -0.6 0.4
v -0.7 -0.5 0.4
v -0.7 0.5 0.4
v -0.7 0.6 0.4
v -0.6 0.7 0.4
v -0.6 0.8 0.4
v -0.5 0.7 0.4
v -0.5 0.8 0.4
v 0.5 0.7 0.4
v 0.5 0.8 0.4
v 0.6 0.7 0.4
v 0.6 0.8 0.4
v 0.7 -0.6 0.4
v 0.7 -0.5 0.4
v 0.7 0.5 0.4
v 0.7 0.6 0.4
v 0.8 -0.6 0.4
v 0.8 -0.5 0.4
v 0.8 0.5 0.4
v 0.8 0.6 0.4
v -0.8 -0.5 0.3
v -0.8 -0.4 0.3
v -0.8 0.4 0.3
v -0.8 0.5 0.3
v -0.7 -0.5 0.3
v -0.7 -0.4 0.3
v -0.7 0.4 0.3
v -0.7 0.5 0.3
v -0.5 0.7 0.3
v -0.5 0.8 0.3
v -0.4 0.7 0.3
v -0.4 0.8 0.3
v 0.4 0.7 0.3
v 0.4 0.8 0.3
v 0.5 0.7 0.3
v 0.5 0.8 0.3
v 0.7 -0.5 0.3
v 0.7 -0.4 0.3
v 0.7 0.4 0.3
v 0.7 0.5 0.3
v 0.8 -0.5 0.3
v 0.8 -0.4 0.3
v 0.8 0.4 0.3
v 0.8 0.5 0.3
v -0.8 -0.4 0.2
v -0.8 -0.3 0.2
v -0.8 0.3 0.2
v -0.8 0.4 0.2
v -0.7 -0.4 0.2
v -0.7 -0.3 0.2
v -0.7 0.3 0.2
v -0.7 0.4 0.2
v -0.4 0.7 0.2
v -0.4 0.8 0.2
v -0.3 0.7 0.2
v -0.3 0.8 0.2
v 0.3 0.7 0.2
v 0.3 0.8 0.2
v 0.4 0.7 0.2
v 0.4 0.8 0.2
v 0.7 -0.4 0.2
v 0.7 -0.3 0.2
v 0.7 0.3 0.2
v 0.7 0.4 0.2
v 0.8 -0.4 0.2
v 0.8 -0.3 0.2
v 0.8 0.3 0.2
v 0.8 0.4 0.2
v -0.8 -0.3 0.1
v -0.8 -0.2 0.1
v -0.8 0.2 0.1
v -0.8 0.3 0.1
v -0.7 -0.3 0.1
v -0.7 -0.2 0.1
v -0.7 0.2 0.1
v -0.7 0.3 0.1
v -0.3 0.7 0.1
v -0.3 0.8 0.1
v -0.2 0.7 0.1
v -0.2 0.8 0.1
v 0.2 0.7 0.1
v 0.2 0.8 0.1
v 0.3 0.7 0.1
v 0.3 0.8 0.1
v 0.7 -0.3 0.1
v 0.7 -0.2 0.1
v 0.7 0.2 0.1
v 0.7 0.3 0.1
v 0.8 -0.3 0.1
v 0.8 -0.2 0.1
v 0.8 0.2 0.1
v 0.8 0.3 0.1
v -0.8 -0.1 -0.2
v -0.8 0.1 -0.2
v -0.7 -0.1 -0.2
v -0.7 0.1 -0.2
v -0.1 0.7 -0.2
v -0.1 0.8 -0.2
v 0.1 0.7 -0.2
v 0.1 0.8 -0.2
v 0.7 -0.1 -0.2
v 0.7 0.1 -0.2
v 0.8 -0.1 -0.2
v 0.8 0.1 -0.2
v -0.8 -0.2 -0.3
v -0.8 -0.1 -0.3
v -0.8 0.1 -0.3
v -0.8 0.2 -0.3
v -0.7 -0.2 -0.3
v -0.7 -0.1 -0.3
v -0.7 0.1 -0.3
v -0.7 0.2 -0.3
v -0.2 0.7 -0.3
v -0.2 0.8 -0.3
v -0.1 0.7 -0.3
v -0.1 0.8 -0.3
v 0.1 0.7 -0.3
v 0.1 0.8 -0.3
v 0.2 0.7 -0.3
v 0.2 0.8 -0.3
v 0.7 -0.2 -0.3
v 0.7 -0.1 -0.3
v 0.7 0.1 -0.3
v 0.7 0.2 -0.3
v 0.8 -0.2 -0.3
v 0.8 -0.1 -0.3
v 0.8 0.1 -0.3
v 0.8 0.2 -0.3
v -0.8 -0.3 -0.4
v -0.8 -0.2 -0.4
v -0.8 0.2 -0.4
v -0.8 0.3 -0.4
v -0.7 -0.3 -0.4
v -0.7 -0.2 -0.4
v -0.7 0.2 -0.4
v -0.7 0.3 -0.4
v -0.3 0.7 -0.4
v -0.3 0.8 -0.4
v -0.2 0.7 -0.4
v -0.2 0.8 -0.4
v 0.2 0.7 -0.4
v 0.2 0.8 -0.4
v 0.3 0.7 -0.4
v 0.3 0.8 -0.4
v 0.7 -0.3 -0.4
v 0.7 -0.2 -0.4
v 0.7 0.2 -0.4
v 0.7 0.3 -0.4
v 0.8 -0.3 -0.4
v 0.8 -0.2 -0.4
v 0.8 0.2 -0.4
v 0.8 0.3 -0.4
v -0.8 -0.4 -0.5
v -0.8 -0.3 -0.5
v -0.8 0.3 -0.5
v -0.8 0.4 -0.5
v -0.7 -0.4 -0.5
v -0.7 -0.3 -0.5
v -0.7 0.3 -0.5
v -0.7 0.4 -0.5
v -0.4 0.7 -0.5
v -0.4 0.8 -0.5
v -0.3 0.7 -0.5
v -0.3 0.8 -0.5
v 0.3 0.7 -0.5
v 0.3 0.8 -0.5
v 0.4 0.7 -0.5
v 0.4 0.8 -0.5
v 0.7 -0.4 -0.5
v 0.7 -0.3 -0.5
v 0.7 0.3 -0.5
v 0.7 0.4 -0.5
v 0.8 -0.4 -0.5
v 0.8 -0.3 -0.5
v 0.8 0.3 -0.5
v 0.8 0.4 -0.5
v -0.8 -0.8 -0.8
v -0.8 0.8 -0.8
v 0.8 -0.8 -0.8
v 0.8 0.8 -0.8
v -0.8 -0.8 0.8
v 0.8 -0.8 0.8
v -0.8 -0.8 -0.8
v 0.8 -0.8 -0.8
v -0.4 -0.5 0.8
v -0.3 -0.5 0.8
v 0.3 -0.5 0.8
v 0.4 -0.5 0.8
v -0.4 -0.5 0.7
v -0.3 -0.5 0.7
v 0.3 -0.5 0.7
v 0.4 -0.5 0.7
v -0.8 -0.5 0.4
v -0.7 -0.5 0.4
v 0.7 -0.5 0.4
v 0.8 -0.5 0.4
v -0.8 -0.5 0.3
v -0.7 -0.5 0.3
v 0.7 -0.5 0.3
v 0.8 -0.5 0.3
v -0.8 -0.5 -0.3
v -0.7 -0.5 -0.3
v 0.7 -0.5 -0.3
v 0.8 -0.5 -0.3
v -0.8 -0.5 -0.4
v -0.7 -0.5 -0.4
v 0.7 -0.5 -0.4
v 0.8 -0.5 -0.4
v -0.3 -0.4 0.8
v -0.2 -0.4 0.8
v 0.2 -0.4 0.8
v 0.3 -0.4 0.8
v -0.3 -0.4 0.7
v -0.2 -0.4 0.7
v 0.2 -0.4 0.7
v 0.3 -0.4 0.7
v -0.8 -0.4 0.3
v -0.7 -0.4 0.3
v 0.7 -0.4 0.3
v 0.8 -0.4 0.3
v -0.8 -0.4 0.2
v -0.7 -0.4 0.2
v 0.7 -0.4 0.2
v 0.8 -0.4 0.2
v -0.8 -0.4 -0.2
v -0.7 -0.4 -0.2
v 0.7 -0.4 -0.2
v 0.8 -0.4 -0.2
v -0.8 -0.4 -0.3
v -0.7 -0.4 -0.3
v 0.7 -0.4 -0.3
v 0.8 -0.4 -0.3
v -0.2 -0.3 0.8
v -0.1 -0.3 0.8
v 0.1 -0.3 0.8
v 0.2 -0.3 0.8
v -0.2 -0.3 0.7
v -0.1 -0.3 0.7
v 0.1 -0.3 0.7
v 0.2 -0.3 0.7
v -0.8 -0.3 0.2
v -0.7 -0.3 0.2
v 0.7 -0.3 0.2
v 0.8 -0.3 0.2
v -0.8 -0.3 0.1
v -0.7 -0.3 0.1
v 0.7 -0.3 0.1
v 0.8 -0.3 0.1
v -0.8 -0.3 -0.1
v -0.7 -0.3 -0.1
v 0.7 -0.3 -0.1
v 0.8 -0.3 -0.1
v -0.8 -0.3 -0.2
v -0.7 -0.3 -0.2
v 0.7 -0.3 -0.2
v 0.8 -0.3 -0.2
v -0.1 -0.2 0.8
v 0.1 -0.2 0.8
v -0.1 -0.2 0.7
v 0.1 -0.2 0.7
v -0.8 -0.2 0.1
v -0.7 -0.2 0.1
v 0.7 -0.2 0.1
v 0.8 -0.2 0.1
v -0.8 -0.2 -0.1
v -0.7 -0.2 -0.1
v 0.7 -0.2 -0.1
v 0.8 -0.2 -0.1
v -0.3 0.1 0.8
v -0.2 0.1 0.8
v 0.2 0.1 0.8
v 0.3 0.1 0.8
v -0.3 0.1 0.7
v -0.2 0.1 0.7
v 0.2 0.1 0.7
v 0.3 0.1 0.7
v -0.8 0.1 0.3
v -0.7 0.1 0.3
v 0.7 0.1 0.3
v 0.8 0.1 0.3
v -0.8 0.1 0.2
v -0.7 0.1 0.2
v 0.7 0.1 0.2
v 0.8 0.1 0.2
v -0.8 0.1 -0.2
v -0.7 0.1 -0.2
v 0.7 0.1 -0.2
v 0.8 0.1 -0.2
v -0.8 0.1 -0.3
v -0.7 0.1 -0.3
v 0.7 0.1 -0.3
v 0.8 0.1 -0.3
v -0.4 0.2 0.8
v -0.3 0.2 0.8
v 0.3 0.2 0.8
v 0.4 0.2 0.8
v -0.4 0.2 0.7
v -0.3 0.2 0.7
v 0.3 0.2 0.7
v 0.4 0.2 0.7
v -0.8 0.2 0.4
v -0.7 0.2 0.4
v 0.7 0.2 0.4
v 0.8 0.2 0.4
v -0.8 0.2 0.3
v -0.7 0.2 0.3
v 0.7 0.2 0.3
v 0.8 0.2 0.3
v -0.8 0.2 -0.3
v -0.7 0.2 -0.3
v 0.7 0.2 -0.3
v 0.8 0.2 -0.3
v -0.8 0.2 -0.4
v -0.7 0.2 -0.4
v 0.7 0.2 -0.4
v 0.8 0.2 -0.4
v -0.5 0.3 0.8
v -0.4 0.3 0.8
v 0.4 0.3 0.8
v 0.5 0.3 0.8
v -0.5 0.3 0.7
v -0.4 0.3 0.7
v 0.4 0.3 0.7
v 0.5 0.3 0.7
v -0.8 0.3 0.5
v -0.7 0.3 0.5
v 0.7 0.3 0.5
v 0.8 0.3 0.5
v -0.8 0.3 0.4
v -0.7 0.3 0.4
v 0.7 0.3 0.4
v 0.8 0.3 0.4
v -0.8 0.3 -0.4
v -0.7 0.3 -0.4
v 0.7 0.3 -0.4
v 0.8 0.3 -0.4
v -0.8 0.3 -0.5
v -0.7 0.3 -0.5
v 0.7 0.3 -0.5
v 0.8 0.3 -0.5
v -0.6 0.4 0.8
v -0.5 0.4 0.8
v 0.5 0.4 0.8
v 0.6 0.4 0.8
v -0.6 0.4 0.7
v -0.5 0.4 0.7
v 0.5 0.4 0.7
v 0.6 0.4 0.7
v -0.8 0.4 0.6
v -0.7 0.4 0.6
v 0.7 0.4 0.6
v 0.8 0.4 0.6
v -0.8 0.4 0.5
v -0.7 0.4 0.5
v 0.7 0.4 0.5
v 0.8 0.4 0.5
v -0.8 0.4 -0.5
v -0.7 0.4 -0.5
v 0.7 0.4 -0.5
v 0.8 0.4 -0.5
v -0.8 0.4 -0.6
v -0.7 0.4 -0.6
v 0.7 0.4 -0.6
v 0.8 0.4 -0.6
v -0.4 0.6 0.8
v 0.4 0.6 0.8
v -0.4 0.6 0.7
v 0.4 0.6 0.7
v -0.8 0.6 0.4
v -0.7 0.6 0.4
v 0.7 0.6 0.4
v 0.8 0.6 0.4
v -0.8 0.6 -0.4
v -0.7 0.6 -0.4
v 0.7 0.6 -0.4
v 0.8 0.6 -0.4
v -0.4 -0.6 0.8
v 0.4 -0.6 0.8
v -0.4 -0.6 0.7
v 0.4 -0.6 0.7
v -0.8 -0.6 0.4
v -0.7 -0.6 0.4
v 0.7 -0.6 0.4
v 0.8 -0.6 0.4
v -0.8 -0.6 -0.4
v -0.7 -0.6 -0.4
v 0.7 -0.6 -0.4
v 0.8 -0.6 -0.4
v -0.6 -0.4 0.8
v -0.5 -0.4 0.8
v 0.5 -0.4 0.8
v 0.6 -0.4 0.8
v -0.6 -0.4 0.7
v -0.5 -0.4 0.7
v 0.5 -0.4 0.7
v 0.6 -0.4 0.7
v -0.8 -0.4 0.6
v -0.7 -0.4 0.6
v 0.7 -0.4 0.6
v 0.8 -0.4 0.6
v -0.8 -0.4 0.5
v -0.7 -0.4 0.5
v 0.7 -0.4 0.5
v 0.8 -0.4 0.5
v -0.8 -0.4 -0.5
v -0.7 -0.4 -0.5
v 0.7 -0.4 -0.5
v 0.8 -0.4 -0.5
v -0.8 -0.4 -0.6
v -0.7 -0.4 -0.6
v 0.7 -0.4 -0.6
v 0.8 -0.4 -0.6
v -0.5 -0.3 0.8
v -0.4 -0.3 0.8
v 0.4 -0.3 0.8
v 0.5 -0.3 0.8
v -0.5 -0.3 0.7
v -0.4 -0.3 0.7
v 0.4 -0.3 0.7
v 0.5 -0.3 0.7
v -0.8 -0.3 0.5
v -0.7 -0.3 0.5
v 0.7 -0.3 0.5
v 0.8 -0.3 0.5
v -0.8 -0.3 0.4
v -0.7 -0.3 0.4
v 0.7 -0.3 0.4
v 0.8 -0.3 0.4
v -0.8 -0.3 -0.4
v -0.7 -0.3 -0.4
v 0.7 -0.3 -0.4
v 0.8 -0.3 -0.4
v -0.8 -0.3 -0.5
v -0.7 -0.3 -0.5
v 0.7 -0.3 -0.5
v 0.8 -0.3 -0.5
v -0.4 -0.2 0.8
v -0.3 -0.2 0.8
v 0.3 -0.2 0.8
v 0.4 -0.2 0.8
v -0.4 -0.2 0.7
v -0.3 -0.2 0.7
v 0.3 -0.2 0.7
v 0.4 -0.2 0.7
v -0.8 -0.2 0.4
v -0.7 -0.2 0.4
v 0.7 -0.2 0.4
v 0.8 -0.2 0.4
v -0.8 -0.2 0.3
v -0.7 -0.2 0.3
v 0.7 -0.2 0.3
v 0.8 -0.2 0.3
v -0.8 -0.2 -0.3
v -0.7 -0.2 -0.3
v 0.7 -0.2 -0.3
v 0.8 -0.2 -0.3
v -0.8 -0.2 -0.4
v -0.7 -0.2 -0.4
v 0.7 -0.2 -0.4
v 0.8 -0.2 -0.4
v -0.3 -0.1 0.8
v -0.2 -0.1 0.8
v 0.2 -0.1 0.8
v 0.3 -0.1 0.8
v -0.3 -0.1 0.7
v -0.2 -0.1 0.7
v 0.2 -0.1 0.7
v 0.3 -0.1 0.7
v -0.8 -0.1 0.3
v -0.7 -0.1 0.3
v 0.7 -0.1 0.3
v 0.8 -0.1 0.3
v -0.8 -0.1 0.2
v -0.7 -0.1 0.2
v 0.7 -0.1 0.2
v 0.8 -0.1 0.2
v -0.8 -0.1 -0.2
v -0.7 -0.1 -0.2
v 0.7 -0.1 -0.2
v 0.8 -0.1 -0.2
v -0.8 -0.1 -0.3
v -0.7 -0.1 -0.3
v 0.7 -0.1 -0.3
v 0.8 -0.1 -0.3
v -0.1 0.2 0.8
v 0.1 0.2 0.8
v -0.1 0.2 0.7
v 0.1 0.2 0.7
v -0.8 0.2 0.1
v -0.7 0.2 0.1
v 0.7 0.2 0.1
v 0.8 0.2 0.1
v -0.8 0.2 -0.1
v -0.7 0.2 -0.1
v 0.7 0.2 -0.1
v 0.8 0.2 -0.1
v -0.2 0.3 0.8
v -0.1 0.3 0.8
v 0.1 0.3 0.8
v 0.2 0.3 0.8
v -0.2 0.3 0.7
v -0.1 0.3 0.7
v 0.1 0.3 0.7
v 0.2 0.3 0.7
v -0.8 0.3 0.2
v -0.7 0.3 0.2
v 0.7 0.3 0.2
v 0.8 0.3 0.2
v -0.8 0.3 0.1
v -0.7 0.3 0.1
v 0.7 0.3 0.1
v 0.8 0.3 0.1
v -0.8 0.3 -0.1
v -0.7 0.3 -0.1
v 0.7 0.3 -0.1
v 0.8 0.3 -0.1
v -0.8 0.3 -0.2
v -0.7 0.3 -0.2
v 0.7 0.3 -0.2
v 0.8 0.3 -0.2
v -0.3 0.4 0.8
v -0.2 0.4 0.8
v 0.2 0.4 0.8
v 0.3 0.4 0.8
v -0.3 0.4 0.7
v -0.2 0.4 0.7
v 0.2 0.4 0.7
v 0.3 0.4 0.7
v -0.8 0.4 0.3
v -0.7 0.4 0.3
v 0.7 0.4 0.3
v 0.8 0.4 0.3
v -0.8 0.4 0.2
v -0.7 0.4 0.2
v 0.7 0.4 0.2
v 0.8 0.4 0.2
v -0.8 0.4 -0.2
v -0.7 0.4 -0.2
v 0.7 0.4 -0.2
v 0.8 0.4 -0.2
v -0.8 0.4 -0.3
v -0.7 0.4 -0.3
v 0.7 0.4 -0.3
v 0.8 0.4 -0.3
v -0.4 0.5 0.8
v -0.3 0.5 0.8
v 0.3 0.5 0.8
v 0.4 0.5 0.8
v -0.4 0.5 0.7
v -0.3 0.5 0.7
v 0.3 0.5 0.7
v 0.4 0.5 0.7
v -0.8 0.5 0.4
v -0.7 0.5 0.4
v 0.7 0.5 0.4
v 0.8 0.5 0.4
v -0.8 0.5 0.3
v -0.7 0.5 0.3
v 0.7 0.5 0.3
v 0.8 0.5 0.3
v -0.8 0.5 -0.3
v -0.7 0.5 -0.3
v 0.7 0.5 -0.3
v 0.8 0.5 -0.3
v -0.8 0.5 -0.4
v -0.7 0.5 -0.4
v 0.7 0.5 -0.4
v 0.8 0.5 -0.4
v -0.4 0.7 0.6
v 0.4 0.7 0.6
v -0.4 0.7 0.5
v -0.3 0.7 0.5
v 0.3 0.7 0.5
v 0.4 0.7 0.5
v -0.6 0.7 0.4
v -0.5 0.7 0.4
v -0.3 0.7 0.4
v -0.2 0.7 0.4
v 0.2 0.7 0.4
v 0.3 0.7 0.4
v 0.5 0.7 0.4
v 0.6 0.7 0.4
v -0.5 0.7 0.3
v -0.4 0.7 0.3
v -0.2 0.7 0.3
v -0.1 0.7 0.3
v 0.1 0.7 0.3
v 0.2 0.7 0.3
v 0.4 0.7 0.3
v 0.5 0.7 0.3
v -0.4 0.7 0.2
v -0.3 0.7 0.2
v -0.1 0.7 0.2
v 0.1 0.7 0.2
v 0.3 0.7 0.2
v 0.4 0.7 0.2
v -0.3 0.7 0.1
v -0.2 0.7 0.1
v 0.2 0.7 0.1
v 0.3 0.7 0.1
v -0.3 0.7 -0.1
v -0.2 0.7 -0.1
v 0.2 0.7 -0.1
v 0.3 0.7 -0.1
v -0.4 0.7 -0.2
v -0.3 0.7 -0.2
v -0.1 0.7 -0.2
v 0.1 0.7 -0.2
v 0.3 0.7 -0.2
v 0.4 0.7 -0.2
v -0.5 0.7 -0.3
v -0.4 0.7 -0.3
v -0.2 0.7 -0.3
v -0.1 0.7 -0.3
v 0.1 0.7 -0.3
v 0.2 0.7 -0.3
v 0.4 0.7 -0.3
v 0.5 0.7 -0.3
v -0.6 0.7 -0.4
v -0.5 0.7 -0.4
v -0.3 0.7 -0.4
v -0.2 0.7 -0.4
v 0.2 0.7 -0.4
v 0.3 0.7 -0.4
v 0.5 0.7 -0.4
v 0.6 0.7 -0.4
v -0.4 0.7 -0.5
v -0.3 0.7 -0.5
v 0.3 0.7 -0.5
v 0.4 0.7 -0.5
v -0.4 0.7 -0.6
v 0.4 0.7 -0.6
v -0.8 0.8 0.8
v 0.8 0.8 0.8
v -0.4 0.8 0.6
v 0.4 0.8 0.6
v -0.4 0.8 0.5
v -0.3 0.8 0.5
v 0.3 0.8 0.5
v 0.4 0.8 0.5
v -0.6 0.8 0.4
v -0.5 0.8 0.4
v -0.3 0.8 0.4
v -0.2 0.8 0.4
v 0.2 0.8 0.4
v 0.3 0.8 0.4
v 0.5 0.8 0.4
v 0.6 0.8 0.4
v -0.5 0.8 0.3
v -0.4 0.8 0.3
v -0.2 0.8 0.3
v -0.1 0.8 0.3
v 0.1 0.8 0.3
v 0.2 0.8 0.3
v 0.4 0.8 0.3
v 0.5 0.8 0.3
v -0.4 0.8 0.2
v -0.3 0.8 0.2
v -0.1 0.8 0.2
v 0.1 0.8 0.2
v 0.3 0.8 0.2
v 0.4 0.8 0.2
v -0.3 0.8 0.1
v -0.2 0.8 0.1
v 0.2 0.8 0.1
v 0.3 0.8 0.1
v -0.3 0.8 -0.1
v -0.2 0.8 -0.1
v 0.2 0.8 -0.1
v 0.3 0.8 -0.1
v -0.4 0.8 -0.2
v -0.3 0.8 -0.2
v -0.1 0.8 -0.2
v 0.1 0.8 -0.2
v 0.3 0.8 -0.2
v 0.4 0.8 -0.2
v -0.5 0.8 -0.3
v -0.4 0.8 -0.3
v -0.2 0.8 -0.3
v -0.1 0.8 -0.3
v 0.1 0.8 -0.3
v 0.2 0.8 -0.3
v 0.4 0.8 -0.3
v 0.5 0.8 -0.3
v -0.6 0.8 -0.4
v -0.5 0.8 -0.4
v -0.3 0.8 -0.4
v -0.2 0.8 -0.4
v 0.2 0.8 -0.4
v 0.3 0.8 -0.4
v 0.5 0.8 -0.4
v 0.6 0.8 -0.4
v -0.4 0.8 -0.5
v -0.3 0.8 -0.5
v 0.3 0.8 -0.5
v 0.4 0.8 -0.5
v -0.4 0.8 -0.6
v 0.4 0.8 -0.6
v -0.8 0.8 -0.8
v 0.8 0.8 -0.8

# faces
f 3/1/1 2/1/1 1/1/1
f 4/1/1 2/1/1 3/1/1
f 5/1/1 3/1/1 1/1/1
f 8/1/1 2/1/1 4/1/1
f 9/1/1 6/1/1 5/1/1
f 9/1/1 5/1/1 1/1/1
f 10/1/1 6/1/1 9/1/1
f 11/1/1 6/1/1 10/1/1
f 14/1/1 8/1/1 7/1/1
f 15/1/1 2/1/1 8/1/1
f 15/1/1 8/1/1 14/1/1
f 16/1/1 2/1/1 15/1/1
f 17/1/1 12/1/1 11/1/1
f 17/1/1 11/1/1 10/1/1
f 18/1/1 12/1/1 17/1/1
f 19/1/1 12/1/1 18/1/1
f 22/1/1 14/1/1 13/1/1
f 22/1/1 15/1/1 14/1/1
f 23/1/1 15/1/1 22/1/1
f 24/1/1 15/1/1 23/1/1
f 25/1/1 20/1/1 19/1/1
f 25/1/1 19/1/1 18/1/1
f 26/1/1 20/1/1 25/1/1
f 27/1/1 20/1/1 26/1/1
f 28/1/1 23/1/1 22/1/1
f 28/1/1 22/1/1 21/1/1
f 29/1/1 23/1/1 28/1/1
f 30/1/1 23/1/1 29/1/1
f 31/1/1 27/1/1 26/1/1
f 31/1/1 29/1/1 28/1/1
f 31/1/1 28/1/1 27/1/1
f 32/1/1 29/1/1 31/1/1
f 33/1/1 29/1/1 32/1/1
f 34/1/1 29/1/1 33/1/1
f 36/1/1 33/1/1 32/1/1
f 37/1/1 33/1/1 36/1/1
f 40/1/1 36/1/1 35/1/1
f 40/1/1 38/1/1 37/1/1
f 40/1/1 37/1/1 36/1/1
f 41/1/1 38/1/1 40/1/1
f 42/1/1 38/1/1 41/1/1
f 43/1/1 38/1/1 42/1/1
f 46/1/1 40/1/1 39/1/1
f 46/1/1 41/1/1 40/1/1
f 47/1/1 41/1/1 46/1/1
f 48/1/1 41/1/1 47/1/1
f 49/1/1 43/1/1 42/1/1
f 49/1/1 44/1/1 43/1/1
f 50/1/1 44/1/1 49/1/1
f 51/1/1 44/1/1 50/1/1
f 53/1/1 9/1/1 1/1/1
f 54/1/1 47/1/1 46/1/1
f 54/1/1 46/1/1 45/1/1
f 55/1/1 47/1/1 54/1/1
f 56/1/1 47/1/1 55/1/1
f 57/1/1 52/1/1 51/1/1
f 57/1/1 51/1/1 50/1/1
f 58/1/1 52/1/1 57/1/1
f 59/1/1 52/1/1 58/1/1
f 60/1/1 2/1/1 16/1/1
f 61/1/1 55/1/1 54/1/1
f 61/1/1 54/1/1 53/1/1
f 62/1/1 55/1/1 61/1/1
f 63/1/1 59/1/1 58/1/1
f 63/1/1 60/1/1 59/1/1
f 64/1/1 60/1/1 63/1/1
f 65/1/1 61/1/1 53/1/1
f 66/1/1 60/1/1 64/1/1
f 67/1/1 65/1/1 53/1/1
f 67/1/1 66/1/1 65/1/1
f 67/1/1 53/1/1 1/1/1
f 68/1/1 60/1/1 66/1/1
f 68/1/1 66/1/1 67/1/1
f 68/1/1 2/1/1 60/1/1
f 71/2/1 70/2/1 69/2/1
f 72/2/1 70/2/1 71/2/1
f 73/2/1 70/2/1 72/2/1
f 74/2/1 70/2/1 73/2/1
f 77/2/1 73/2/1 72/2/1
f 78/2/1 73/2/1 77/2/1
f 79/2/1 73/2/1 78/2/1
f 80/2/1 73/2/1 79/2/1
f 83/2/1 76/2/1 75/2/1
f 85/2/1 79/2/1 78/2/1
f 86/2/1 79/2/1 85/2/1
f 87/2/1 79/2/1 86/2/1
f 88/2/1 79/2/1 87/2/1
f 90/2/1 82/2/1 81/2/1
f 91/2/1 84/2/1 83/2/1
f 93/2/1 87/2/1 86/2/1
f 94/2/1 87/2/1 93/2/1
f 96/2/1 90/2/1 89/2/1
f 97/2/1 92/2/1 91/2/1
f 100/2/1 96/2/1 95/2/1
f 101/2/1 98/2/1 97/2/1
f 101/2/1 97/2/1 91/2/1
f 102/2/1 98/2/1 101/2/1
f 103/2/1 100/2/1 99/2/1
f 104/2/1 96/2/1 100/2/1
f 104/2/1 100/2/1 103/2/1
f 105/2/1 91/2/1 83/2/1
f 105/2/1 101/2/1 91/2/1
f 106/2/1 101/2/1 105/2/1
f 109/2/1 96/2/1 104/2/1
f 110/2/1 90/2/1 96/2/1
f 110/2/1 96/2/1 109/2/1
f 111/2/1 83/2/1 75/2/1
f 111/2/1 105/2/1 83/2/1
f 112/2/1 105/2/1 111/2/1
f 114/2/1 108/2/1 107/2/1
f 115/2/1 108/2/1 114/2/1
f 117/2/1 90/2/1 110/2/1
f 118/2/1 82/2/1 90/2/1
f 118/2/1 90/2/1 117/2/1
f 119/2/1 111/2/1 75/2/1
f 120/2/1 111/2/1 119/2/1
f 122/2/1 116/2/1 115/2/1
f 122/2/1 115/2/1 114/2/1
f 122/2/1 114/2/1 113/2/1
f 123/2/1 116/2/1 122/2/1
f 125/2/1 82/2/1 118/2/1
f 126/2/1 82/2/1 125/2/1
f 128/2/1 124/2/1 123/2/1
f 128/2/1 122/2/1 121/2/1
f 128/2/1 123/2/1 122/2/1
f 129/2/1 124/2/1 128/2/1
f 131/2/1 128/2/1 127/2/1
f 131/2/1 130/2/1 129/2/1
f 131/2/1 129/2/1 128/2/1
f 132/2/1 130/2/1 131/2/1
f 135/1/1 134/1/1 133/1/1
f 136/1/1 134/1/1 135/1/1
f 139/1/1 138/1/1 137/1/1
f 140/1/1 138/1/1 139/1/1
f 145/1/1 142/1/1 141/1/1
f 146/1/1 142/1/1 145/1/1
f 147/1/1 144/1/1 143/1/1
f 148/1/1 144/1/1 147/1/1
f 151/1/1 150/1/1 149/1/1
f 152/1/1 150/1/1 151/1/1
f 155/1/1 154/1/1 153/1/1
f 156/1/1 154/1/1 155/1/1
f 161/1/1 158/1/1 157/1/1
f 162/1/1 158/1/1 161/1/1
f 163/1/1 160/1/1 159/1/1
f 164/1/1 160/1/1 163/1/1
f 167/1/1 166/1/1 165/1/1
f 168/1/1 166/1/1 167/1/1
f 171/1/1 170/1/1 169/1/1
f 172/1/1 170/1/1 171/1/1
f 177/1/1 174/1/1 173/1/1
f 178/1/1 174/1/1 177/1/1
f 179/1/1 176/1/1 175/1/1
f 180/1/1 176/1/1 179/1/1
f 183/1/1 182/1/1 181/1/1
f 184/1/1 182/1/1 183/1/1
f 187/1/1 186/1/1 185/1/1
f 188/1/1 186/1/1 187/1/1
f 191/1/1 190/1/1 189/1/1
f 192/1/1 190/1/1 191/1/1
f 195/1/1 194/1/1 193/1/1
f 196/1/1 194/1/1 195/1/1
f 201/1/1 198/1/1 197/1/1
f 202/1/1 198/1/1 201/1/1
f 203/1/1 200/1/1 199/1/1
f 204/1/1 200/1/1 203/1/1
f 207/1/1 206/1/1 205/1/1
f 208/1/1 206/1/1 207/1/1
f 211/1/1 210/1/1 209/1/1
f 212/1/1 210/1/1 211/1/1
f 217/1/1 214/1/1 213/1/1
f 218/1/1 214/1/1 217/1/1
f 219/1/1 216/1/1 215/1/1
f 220/1/1 216/1/1 219/1/1
f 223/1/1 222/1/1 221/1/1
f 224/1/1 222/1/1 223/1/1
f 227/1/1 226/1/1 225/1/1
f 228/1/1 226/1/1 227/1/1
f 233/1/1 230/1/1 229/1/1
f 234/1/1 230/1/1 233/1/1
f 235/1/1 232/1/1 231/1/1
f 236/1/1 232/1/1 235/1/1
f 239/1/1 238/1/1 237/1/1
f 240/1/1 238/1/1 239/1/1
f 243/1/1 242/1/1 241/1/1
f 244/1/1 242/1/1 243/1/1
f 249/1/1 246/1/1 245/1/1
f 250/1/1 246/1/1 249/1/1
f 251/1/1 248/1/1 247/1/1
f 252/1/1 248/1/1 251/1/1
f 255/1/1 254/1/1 253/1/1
f 256/1/1 254/1/1 255/1/1
f 259/1/1 258/1/1 257/1/1
f 260/1/1 258/1/1 259/1/1
f 261/1/2 262/1/2 263/1/2
f 263/1/2 262/1/2 264/1/2
f 265/1/2 266/1/2 267/1/2
f 267/1/2 266/1/2 268/1/2
f 269/1/2 270/1/2 271/1/2
f 271/1/2 270/1/2 272/1/2
f 273/1/2 274/1/2 275/1/2
f 275/1/2 274/1/2 276/1/2
f 277/1/2 278/1/2 281/1/2
f 281/1/2 278/1/2 282/1/2
f 279/1/2 280/1/2 283/1/2
f 283/1/2 280/1/2 284/1/2
f 285/1/2 286/1/2 287/1/2
f 287/1/2 286/1/2 288/1/2
f 289/1/2 290/1/2 291/1/2
f 291/1/2 290/1/2 292/1/2
f 293/1/2 294/1/2 297/1/2
f 297/1/2 294/1/2 298/1/2
f 295/1/2 296/1/2 299/1/2
f 299/1/2 296/1/2 300/1/2
f 301/1/2 302/1/2 303/1/2
f 303/1/2 302/1/2 304/1/2
f 305/1/2 306/1/2 307/1/2
f 307/1/2 306/1/2 308/1/2
f 309/1/2 310/1/2 313/1/2
f 313/1/2 310/1/2 314/1/2
f 311/1/2 312/1/2 315/1/2
f 315/1/2 312/1/2 316/1/2
f 317/1/2 318/1/2 319/1/2
f 319/1/2 318/1/2 320/1/2
f 321/1/2 322/1/2 323/1/2
f 323/1/2 322/1/2 324/1/2
f 325/1/2 326/1/2 329/1/2
f 329/1/2 326/1/2 330/1/2
f 327/1/2 328/1/2 331/1/2
f 331/1/2 328/1/2 332/1/2
f 333/1/2 334/1/2 335/1/2
f 335/1/2 334/1/2 336/1/2
f 337/1/2 338/1/2 339/1/2
f 339/1/2 338/1/2 340/1/2
f 341/1/2 342/1/2 343/1/2
f 343/1/2 342/1/2 344/1/2
f 345/1/2 346/1/2 347/1/2
f 347/1/2 346/1/2 348/1/2
f 349/1/2 350/1/2 353/1/2
f 353/1/2 350/1/2 354/1/2
f 351/1/2 352/1/2 355/1/2
f 355/1/2 352/1/2 356/1/2
f 357/1/2 358/1/2 359/1/2
f 359/1/2 358/1/2 360/1/2
f 361/1/2 362/1/2 363/1/2
f 363/1/2 362/1/2 364/1/2
f 365/1/2 366/1/2 369/1/2
f 369/1/2 366/1/2 370/1/2
f 367/1/2 368/1/2 371/1/2
f 371/1/2 368/1/2 372/1/2
f 373/1/2 374/1/2 375/1/2
f 375/1/2 374/1/2 376/1/2
f 377/1/2 378/1/2 379/1/2
f 379/1/2 378/1/2 380/1/2
f 381/1/2 382/1/2 385/1/2
f 385/1/2 382/1/2 386/1/2
f 383/1/2 384/1/2 387/1/2
f 387/1/2 384/1/2 388/1/2
f 389/2/2 390/2/2 391/2/2
f 391/2/2 390/2/2 392/2/2
f 392/2/2 390/2/2 393/2/2
f 393/2/2 390/2/2 394/2/2
f 392/2/2 393/2/2 397/2/2
f 397/2/2 393/2/2 398/2/2
f 398/2/2 393/2/2 399/2/2
f 399/2/2 393/2/2 400/2/2
f 395/2/2 396/2/2 403/2/2
f 398/2/2 399/2/2 405/2/2
f 405/2/2 399/2/2 406/2/2
f 406/2/2 399/2/2 407/2/2
f 407/2/2 399/2/2 408/2/2
f 401/2/2 402/2/2 410/2/2
f 403/2/2 404/2/2 411/2/2
f 406/2/2 407/2/2 413/2/2
f 413/2/2 407/2/2 414/2/2
f 409/2/2 410/2/2 416/2/2
f 411/2/2 412/2/2 417/2/2
f 415/2/2 416/2/2 420/2/2
f 417/2/2 418/2/2 421/2/2
f 411/2/2 417/2/2 421/2/2
f 421/2/2 418/2/2 422/2/2
f 419/2/2 420/2/2 423/2/2
f 420/2/2 416/2/2 424/2/2
f 423/2/2 420/2/2 424/2/2
f 403/2/2 411/2/2 425/2/2
f 411/2/2 421/2/2 425/2/2
f 425/2/2 421/2/2 426/2/2
f 424/2/2 416/2/2 429/2/2
f 416/2/2 410/2/2 430/2/2
f 429/2/2 416/2/2 430/2/2
f 395/2/2 403/2/2 431/2/2
f 403/2/2 425/2/2 431/2/2
f 431/2/2 425/2/2 432/2/2
f 427/2/2 428/2/2 434/2/2
f 434/2/2 428/2/2 435/2/2
f 430/2/2 410/2/2 437/2/2
f 410/2/2 402/2/2 438/2/2
f 437/2/2 410/2/2 438/2/2
f 395/2/2 431/2/2 439/2/2
f 439/2/2 431/2/2 440/2/2
f 435/2/2 436/2/2 442/2/2
f 434/2/2 435/2/2 442/2/2
f 433/2/2 434/2/2 442/2/2
f 442/2/2 436/2/2 443/2/2
f 438/2/2 402/2/2 445/2/2
f 445/2/2 402/2/2 446/2/2
f 443/2/2 444/2/2 448/2/2
f 441/2/2 442/2/2 448/2/2
f 442/2/2 443/2/2 448/2/2
f 448/2/2 444/2/2 449/2/2
f 447/2/2 448/2/2 451/2/2
f 449/2/2 450/2/2 451/2/2
f 448/2/2 449/2/2 451/2/2
f 451/2/2 450/2/2 452/2/2
f 453/1/2 454/1/2 455/1/2
f 455/1/2 454/1/2 456/1/2
f 453/1/2 455/1/2 457/1/2
f 456/1/2 454/1/2 460/1/2
f 457/1/2 458/1/2 461/1/2
f 453/1/2 457/1/2 461/1/2
f 461/1/2 458/1/2 462/1/2
f 462/1/2 458/1/2 463/1/2
f 459/1/2 460/1/2 466/1/2
f 460/1/2 454/1/2 467/1/2
f 466/1/2 460/1/2 467/1/2
f 467/1/2 454/1/2 468/1/2
f 463/1/2 464/1/2 469/1/2
f 462/1/2 463/1/2 469/1/2
f 469/1/2 464/1/2 470/1/2
f 470/1/2 464/1/2 471/1/2
f 465/1/2 466/1/2 474/1/2
f 466/1/2 467/1/2 474/1/2
f 474/1/2 467/1/2 475/1/2
f 475/1/2 467/1/2 476/1/2
f 471/1/2 472/1/2 477/1/2
f 470/1/2 471/1/2 477/1/2
f 477/1/2 472/1/2 478/1/2
f 478/1/2 472/1/2 479/1/2
f 474/1/2 475/1/2 480/1/2
f 473/1/2 474/1/2 480/1/2
f 480/1/2 475/1/2 481/1/2
f 481/1/2 475/1/2 482/1/2
f 478/1/2 479/1/2 483/1/2
f 480/1/2 481/1/2 483/1/2
f 479/1/2 480/1/2 483/1/2
f 483/1/2 481/1/2 484/1/2
f 484/1/2 481/1/2 485/1/2
f 485/1/2 481/1/2 486/1/2
f 484/1/2 485/1/2 488/1/2
f 488/1/2 485/1/2 489/1/2
f 487/1/2 488/1/2 492/1/2
f 489/1/2 490/1/2 492/1/2
f 488/1/2 489/1/2 492/1/2
f 492/1/2 490/1/2 493/1/2
f 493/1/2 490/1/2 494/1/2
f 494/1/2 490/1/2 495/1/2
f 491/1/2 492/1/2 498/1/2
f 492/1/2 493/1/2 498/1/2
f 498/1/2 493/1/2 499/1/2
f 499/1/2 493/1/2 500/1/2
f 494/1/2 495/1/2 501/1/2
f 495/1/2 496/1/2 501/1/2
f 501/1/2 496/1/2 502/1/2
f 502/1/2 496/1/2 503/1/2
f 453/1/2 461/1/2 505/1/2
f 498/1/2 499/1/2 506/1/2
f 497/1/2 498/1/2 506/1/2
f 506/1/2 499/1/2 507/1/2
f 507/1/2 499/1/2 508/1/2
f 503/1/2 504/1/2 509/1/2
f 502/1/2 503/1/2 509/1/2
f 509/1/2 504/1/2 510/1/2
f 510/1/2 504/1/2 511/1/2
f 468/1/2 454/1/2 512/1/2
f 506/1/2 507/1/2 513/1/2
f 505/1/2 506/1/2 513/1/2
f 513/1/2 507/1/2 514/1/2
f 510/1/2 511/1/2 515/1/2
f 511/1/2 512/1/2 515/1/2
f 515/1/2 512/1/2 516/1/2
f 505/1/2 513/1/2 517/1/2
f 516/1/2 512/1/2 518/1/2
f 505/1/2 517/1/2 519/1/2
f 517/1/2 518/1/2 519/1/2
f 453/1/2 505/1/2 519/1/2
f 518/1/2 512/1/2 520/1/2
f 519/1/2 518/1/2 520/1/2
f 512/1/2 454/1/2 520/1/2
f 523/1/3 522/1/3 521/1/3
f 524/1/3 522/1/3 523/1/3
f 525/1/3 523/1/3 521/1/3
f 528/1/3 522/1/3 524/1/3
f 529/1/3 526/1/3 525/1/3
f 529/1/3 525/1/3 521/1/3
f 530/1/3 526/1/3 529/1/3
f 531/1/3 526/1/3 530/1/3
f 534/1/3 528/1/3 527/1/3
f 535/1/3 522/1/3 528/1/3
f 535/1/3 528/1/3 534/1/3
f 536/1/3 522/1/3 535/1/3
f 537/1/3 532/1/3 531/1/3
f 537/1/3 531/1/3 530/1/3
f 538/1/3 532/1/3 537/1/3
f 539/1/3 532/1/3 538/1/3
f 542/1/3 534/1/3 533/1/3
f 542/1/3 535/1/3 534/1/3
f 543/1/3 535/1/3 542/1/3
f 544/1/3 535/1/3 543/1/3
f 545/1/3 540/1/3 539/1/3
f 545/1/3 539/1/3 538/1/3
f 546/1/3 540/1/3 545/1/3
f 547/1/3 540/1/3 546/1/3
f 548/1/3 543/1/3 542/1/3
f 548/1/3 542/1/3 541/1/3
f 549/1/3 543/1/3 548/1/3
f 550/1/3 543/1/3 549/1/3
f 551/1/3 547/1/3 546/1/3
f 551/1/3 549/1/3 548/1/3
f 551/1/3 548/1/3 547/1/3
f 552/1/3 549/1/3 551/1/3
f 553/1/3 549/1/3 552/1/3
f 554/1/3 549/1/3 553/1/3
f 556/1/3 553/1/3 552/1/3
f 557/1/3 553/1/3 556/1/3
f 560/1/3 556/1/3 555/1/3
f 560/1/3 558/1/3 557/1/3
f 560/1/3 557/1/3 556/1/3
f 561/1/3 558/1/3 560/1/3
f 562/1/3 558/1/3 561/1/3
f 563/1/3 558/1/3 562/1/3
f 566/1/3 560/1/3 559/1/3
f 566/1/3 561/1/3 560/1/3
f 567/1/3 561/1/3 566/1/3
f 568/1/3 561/1/3 567/1/3
f 569/1/3 563/1/3 562/1/3
f 569/1/3 564/1/3 563/1/3
f 570/1/3 564/1/3 569/1/3
f 571/1/3 564/1/3 570/1/3
f 573/1/3 529/1/3 521/1/3
f 574/1/3 567/1/3 566/1/3
f 574/1/3 566/1/3 565/1/3
f 575/1/3 567/1/3 574/1/3
f 576/1/3 567/1/3 575/1/3
f 577/1/3 572/1/3 571/1/3
f 577/1/3 571/1/3 570/1/3
f 578/1/3 572/1/3 577/1/3
f 579/1/3 572/1/3 578/1/3
f 580/1/3 522/1/3 536/1/3
f 581/1/3 575/1/3 574/1/3
f 581/1/3 574/1/3 573/1/3
f 582/1/3 575/1/3 581/1/3
f 583/1/3 579/1/3 578/1/3
f 583/1/3 580/1/3 579/1/3
f 584/1/3 580/1/3 583/1/3
f 585/1/3 581/1/3 573/1/3
f 586/1/3 580/1/3 584/1/3
f 587/1/3 585/1/3 573/1/3
f 587/1/3 586/1/3 585/1/3
f 587/1/3 573/1/3 521/1/3
f 588/1/3 580/1/3 586/1/3
f 588/1/3 586/1/3 587/1/3
f 588/1/3 522/1/3 580/1/3
f 591/2/3 590/2/3 589/2/3
f 592/2/3 590/2/3 591/2/3
f 593/2/3 590/2/3 592/2/3
f 594/2/3 590/2/3 593/2/3
f 597/2/3 593/2/3 592/2/3
f 598/2/3 593/2/3 597/2/3
f 599/2/3 593/2/3 598/2/3
f 600/2/3 593/2/3 599/2/3
f 603/2/3 596/2/3 595/2/3
f 605/2/3 599/2/3 598/2/3
f 606/2/3 599/2/3 605/2/3
f 607/2/3 599/2/3 606/2/3
f 608/2/3 599/2/3 607/2/3
f 610/2/3 602/2/3 601/2/3
f 611/2/3 604/2/3 603/2/3
f 613/2/3 607/2/3 606/2/3
f 614/2/3 607/2/3 613/2/3
f 616/2/3 610/2/3 609/2/3
f 617/2/3 612/2/3 611/2/3
f 620/2/3 616/2/3 615/2/3
f 621/2/3 618/2/3 617/2/3
f 621/2/3 617/2/3 611/2/3
f 622/2/3 618/2/3 621/2/3
f 623/2/3 620/2/3 619/2/3
f 624/2/3 616/2/3 620/2/3
f 624/2/3 620/2/3 623/2/3
f 625/2/3 611/2/3 603/2/3
f 625/2/3 621/2/3 611/2/3
f 626/2/3 621/2/3 625/2/3
f 629/2/3 616/2/3 624/2/3
f 630/2/3 610/2/3 616/2/3
f 630/2/3 616/2/3 629/2/3
f 631/2/3 603/2/3 595/2/3
f 631/2/3 625/2/3 603/2/3
f 632/2/3 625/2/3 631/2/3
f 634/2/3 628/2/3 627/2/3
f 635/2/3 628/2/3 634/2/3
f 637/2/3 610/2/3 630/2/3
f 638/2/3 602/2/3 610/2/3
f 638/2/3 610/2/3 637/2/3
f 639/2/3 631/2/3 595/2/3
f 640/2/3 631/2/3 639/2/3
f 642/2/3 636/2/3 635/2/3
f 642/2/3 635/2/3 634/2/3
f 642/2/3 634/2/3 633/2/3
f 643/2/3 636/2/3 642/2/3
f 645/2/3 602/2/3 638/2/3
f 646/2/3 602/2/3 645/2/3
f 648/2/3 644/2/3 643/2/3
f 648/2/3 642/2/3 641/2/3
f 648/2/3 643/2/3 642/2/3
f 649/2/3 644/2/3 648/2/3
f 651/2/3 648/2/3 647/2/3
f 651/2/3 650/2/3 649/2/3
f 651/2/3 649/2/3 648/2/3
f 652/2/3 650/2/3 651/2/3
f 657/1/3 654/1/3 653/1/3
f 658/1/3 654/1/3 657/1/3
f 659/1/3 656/1/3 655/1/3
f 660/1/3 656/1/3 659/1/3
f 663/1/3 662/1/3 661/1/3
f 664/1/3 662/1/3 663/1/3
f 667/1/3 666/1/3 665/1/3
f 668/1/3 666/1/3 667/1/3
f 673/1/3 670/1/3 669/1/3
f 674/1/3 670/1/3 673/1/3
f 675/1/3 672/1/3 671/1/3
f 676/1/3 672/1/3 675/1/3
f 681/1/3 678/1/3 677/1/3
f 682/1/3 678/1/3 681/1/3
f 683/1/3 680/1/3 679/1/3
f 684/1/3 680/1/3 683/1/3
f 687/1/3 686/1/3 685/1/3
f 688/1/3 686/1/3 687/1/3
f 691/1/3 690/1/3 689/1/3
f 692/1/3 690/1/3 691/1/3
f 697/1/3 694/1/3 693/1/3
f 698/1/3 694/1/3 697/1/3
f 699/1/3 696/1/3 695/1/3
f 700/1/3 696/1/3 699/1/3
f 705/1/3 702/1/3 701/1/3
f 706/1/3 702/1/3 705/1/3
f 707/1/3 704/1/3 703/1/3
f 708/1/3 704/1/3 707/1/3
f 711/1/3 710/1/3 709/1/3
f 712/1/3 710/1/3 711/1/3
f 715/1/3 714/1/3 713/1/3
f 716/1/3 714/1/3 715/1/3
f 721/1/3 718/1/3 717/1/3
f 722/1/3 718/1/3 721/1/3
f 723/1/3 720/1/3 719/1/3
f 724/1/3 720/1/3 723/1/3
f 727/1/3 726/1/3 725/1/3
f 728/1/3 726/1/3 727/1/3
f 731/1/3 730/1/3 729/1/3
f 732/1/3 730/1/3 731/1/3
f 735/1/3 734/1/3 733/1/3
f 736/1/3 734/1/3 735/1/3
f 741/1/3 738/1/3 737/1/3
f 742/1/3 738/1/3 741/1/3
f 743/1/3 740/1/3 739/1/3
f 744/1/3 740/1/3 743/1/3
f 747/1/3 746/1/3 745/1/3
f 748/1/3 746/1/3 747/1/3
f 751/1/3 750/1/3 749/1/3
f 752/1/3 750/1/3 751/1/3
f 757/1/3 754/1/3 753/1/3
f 758/1/3 754/1/3 757/1/3
f 759/1/3 756/1/3 755/1/3
f 760/1/3 756/1/3 759/1/3
f 765/1/3 762/1/3 761/1/3
f 766/1/3 762/1/3 765/1/3
f 767/1/3 764/1/3 763/1/3
f 768/1/3 764/1/3 767/1/3
f 771/1/3 770/1/3 769/1/3
f 772/1/3 770/1/3 771/1/3
f 775/1/3 774/1/3 773/1/3
f 776/1/3 774/1/3 775/1/3
f 781/1/3 778/1/3 777/1/3
f 782/1/3 778/1/3 781/1/3
f 783/1/3 780/1/3 779/1/3
f 784/1/3 780/1/3 783/1/3
f 789/1/3 786/1/3 785/1/3
f 790/1/3 786/1/3 789/1/3
f 791/1/3 788/1/3 787/1/3
f 792/1/3 788/1/3 791/1/3
f 795/1/3 794/1/3 793/1/3
f 796/1/3 794/1/3 795/1/3
f 799/1/3 798/1/3 797/1/3
f 800/1/3 798/1/3 799/1/3
f 805/1/3 802/1/3 801/1/3
f 806/1/3 802/1/3 805/1/3
f 807/1/3 804/1/3 803/1/3
f 808/1/3 804/1/3 807/1/3
f 813/1/3 810/1/3 809/1/3
f 814/1/3 810/1/3 813/1/3
f 815/1/3 812/1/3 811/1/3
f 816/1/3 812/1/3 815/1/3
f 819/1/3 818/1/3 817/1/3
f 820/1/3 818/1/3 819/1/3
f 823/1/3 822/1/3 821/1/3
f 824/1/3 822/1/3 823/1/3
f 829/1/3 826/1/3 825/1/3
f 830/1/3 826/1/3 829/1/3
f 831/1/3 828/1/3 827/1/3
f 832/1/3 828/1/3 831/1/3
f 835/1/3 834/1/3 833/1/3
f 836/1/3 834/1/3 835/1/3
f 839/1/3 838/1/3 837/1/3
f 840/1/3 838/1/3 839/1/3
f 843/1/3 842/1/3 841/1/3
f 844/1/3 842/1/3 843/1/3
f 845/1/4 846/1/4 847/1/4
f 847/1/4 846/1/4 848/1/4
f 849/1/4 850/1/4 851/1/4
f 851/1/4 850/1/4 852/1/4
f 853/1/4 854/1/4 855/1/4
f 855/1/4 854/1/4 856/1/4
f 857/1/4 858/1/4 861/1/4
f 861/1/4 858/1/4 862/1/4
f 859/1/4 860/1/4 863/1/4
f 863/1/4 860/1/4 864/1/4
f 865/1/4 866/1/4 867/1/4
f 867/1/4 866/1/4 868/1/4
f 869/1/4 870/1/4 871/1/4
f 871/1/4 870/1/4 872/1/4
f 873/1/4 874/1/4 877/1/4
f 877/1/4 874/1/4 878/1/4
f 875/1/4 876/1/4 879/1/4
f 879/1/4 876/1/4 880/1/4
f 881/1/4 882/1/4 885/1/4
f 885/1/4 882/1/4 886/1/4
f 883/1/4 884/1/4 887/1/4
f 887/1/4 884/1/4 888/1/4
f 889/1/4 890/1/4 891/1/4
f 891/1/4 890/1/4 892/1/4
f 893/1/4 894/1/4 895/1/4
f 895/1/4 894/1/4 896/1/4
f 897/1/4 898/1/4 901/1/4
f 901/1/4 898/1/4 902/1/4
f 899/1/4 900/1/4 903/1/4
f 903/1/4 900/1/4 904/1/4
f 905/1/4 906/1/4 909/1/4
f 909/1/4 906/1/4 910/1/4
f 907/1/4 908/1/4 911/1/4
f 911/1/4 908/1/4 912/1/4
f 913/1/4 914/1/4 915/1/4
f 915/1/4 914/1/4 916/1/4
f 917/1/4 918/1/4 919/1/4
f 919/1/4 918/1/4 920/1/4
f 921/1/4 922/1/4 925/1/4
f 925/1/4 922/1/4 926/1/4
f 923/1/4 924/1/4 927/1/4
f 927/1/4 924/1/4 928/1/4
f 929/1/4 930/1/4 933/1/4
f 933/1/4 930/1/4 934/1/4
f 931/1/4 932/1/4 935/1/4
f 935/1/4 932/1/4 936/1/4
f 937/1/4 938/1/4 939/1/4
f 939/1/4 938/1/4 940/1/4
f 941/1/4 942/1/4 943/1/4
f 943/1/4 942/1/4 944/1/4
f 945/1/4 946/1/4 949/1/4
f 949/1/4 946/1/4 950/1/4
f 947/1/4 948/1/4 951/1/4
f 951/1/4 948/1/4 952/1/4
f 953/1/4 954/1/4 955/1/4
f 955/1/4 954/1/4 956/1/4
f 957/1/4 958/1/4 959/1/4
f 959/1/4 958/1/4 960/1/4
f 961/1/4 962/1/4 963/1/4
f 963/1/4 962/1/4 964/1/4
f 965/1/4 966/1/4 969/1/4
f 969/1/4 966/1/4 970/1/4
f 967/1/4 968/1/4 971/1/4
f 971/1/4 968/1/4 972/1/4
f 973/1/4 974/1/4 975/1/4
f 975/1/4 974/1/4 976/1/4
f 977/1/4 978/1/4 979/1/4
f 979/1/4 978/1/4 980/1/4
f 981/1/4 982/1/4 985/1/4
f 985/1/4 982/1/4 986/1/4
f 983/1/4 984/1/4 987/1/4
f 987/1/4 984/1/4 988/1/4
f 989/1/4 990/1/4 993/1/4
f 993/1/4 990/1/4 994/1/4
f 991/1/4 992/1/4 995/1/4
f 995/1/4 992/1/4 996/1/4
f 997/1/4 998/1/4 999/1/4
f 999/1/4 998/1/4 1000/1/4
f 1001/1/4 1002/1/4 1003/1/4
f 1003/1/4 1002/1/4 1004/1/4
f 1005/1/4 1006/1/4 1009/1/4
f 1009/1/4 1006/1/4 1010/1/4
f 1007/1/4 1008/1/4 1011/1/4
f 1011/1/4 1008/1/4 1012/1/4
f 1013/1/4 1014/1/4 1017/1/4
f 1017/1/4 1014/1/4 1018/1/4
f 1015/1/4 1016/1/4 1019/1/4
f 1019/1/4 1016/1/4 1020/1/4
f 1021/1/4 1022/1/4 1023/1/4
f 1023/1/4 1022/1/4 1024/1/4
f 1025/1/4 1026/1/4 1027/1/4
f 1027/1/4 1026/1/4 1028/1/4
f 1029/1/4 1030/1/4 1033/1/4
f 1033/1/4 1030/1/4 1034/1/4
f 1031/1/4 1032/1/4 1035/1/4
f 1035/1/4 1032/1/4 1036/1/4
f 1037/1/4 1038/1/4 1039/1/4
f 1039/1/4 1038/1/4 1040/1/4
f 1043/1/5 1042/1/5 1041/1/5
f 1044/1/5 1042/1/5 1043/1/5
f 1049/1/5 1046/1/5 1045/1/5
f 1050/1/5 1046/1/5 1049/1/5
f 1051/1/5 1048/1/5 1047/1/5
f 1052/1/5 1048/1/5 1051/1/5
f 1057/1/5 1054/1/5 1053/1/5
f 1058/1/5 1054/1/5 1057/1/5
f 1059/1/5 1056/1/5 1055/1/5
f 1060/1/5 1056/1/5 1059/1/5
f 1065/1/5 1062/1/5 1061/1/5
f 1066/1/5 1062/1/5 1065/1/5
f 1067/1/5 1064/1/5 1063/1/5
f 1068/1/5 1064/1/5 1067/1/5
f 1073/1/5 1070/1/5 1069/1/5
f 1074/1/5 1070/1/5 1073/1/5
f 1075/1/5 1072/1/5 1071/1/5
f 1076/1/5 1072/1/5 1075/1/5
f 1081/1/5 1078/1/5 1077/1/5
f 1082/1/5 1078/1/5 1081/1/5
f 1083/1/5 1080/1/5 1079/1/5
f 1084/1/5 1080/1/5 1083/1/5
f 1089/1/5 1086/1/5 1085/1/5
f 1090/1/5 1086/1/5 1089/1/5
f 1091/1/5 1088/1/5 1087/1/5
f 1092/1/5 1088/1/5 1091/1/5
f 1097/1/5 1094/1/5 1093/1/5
f 1098/1/5 1094/1/5 1097/1/5
f 1099/1/5 1096/1/5 1095/1/5
f 1100/1/5 1096/1/5 1099/1/5
f 1105/1/5 1102/1/5 1101/1/5
f 1106/1/5 1102/1/5 1105/1/5
f 1107/1/5 1104/1/5 1103/1/5
f 1108/1/5 1104/1/5 1107/1/5
f 1113/1/5 1110/1/5 1109/1/5
f 1114/1/5 1110/1/5 1113/1/5
f 1115/1/5 1112/1/5 1111/1/5
f 1116/1/5 1112/1/5 1115/1/5
f 1119/1/5 1118/1/5 1117/1/5
f 1120/1/5 1118/1/5 1119/1/5
f 1125/1/5 1122/1/5 1121/1/5
f 1126/1/5 1122/1/5 1125/1/5
f 1127/1/5 1124/1/5 1123/1/5
f 1128/1/5 1124/1/5 1127/1/5
f 1133/1/5 1130/1/5 1129/1/5
f 1134/1/5 1130/1/5 1133/1/5
f 1135/1/5 1132/1/5 1131/1/5
f 1136/1/5 1132/1/5 1135/1/5
f 1141/1/5 1138/1/5 1137/1/5
f 1142/1/5 1138/1/5 1141/1/5
f 1143/1/5 1140/1/5 1139/1/5
f 1144/1/5 1140/1/5 1143/1/5
f 1149/1/5 1146/1/5 1145/1/5
f 1150/1/5 1146/1/5 1149/1/5
f 1151/1/5 1148/1/5 1147/1/5
f 1152/1/5 1148/1/5 1151/1/5
f 1157/1/5 1154/1/5 1153/1/5
f 1158/1/5 1154/1/5 1157/1/5
f 1159/1/5 1156/1/5 1155/1/5
f 1160/1/5 1156/1/5 1159/1/5
f 1165/1/5 1162/1/5 1161/1/5
f 1166/1/5 1162/1/5 1165/1/5
f 1167/1/5 1164/1/5 1163/1/5
f 1168/1/5 1164/1/5 1167/1/5
f 1173/1/5 1170/1/5 1169/1/5
f 1174/1/5 1170/1/5 1173/1/5
f 1175/1/5 1172/1/5 1171/1/5
f 1176/1/5 1172/1/5 1175/1/5
f 1181/1/5 1178/1/5 1177/1/5
f 1182/1/5 1178/1/5 1181/1/5
f 1183/1/5 1180/1/5 1179/1/5
f 1184/1/5 1180/1/5 1183/1/5
f 1189/1/5 1186/1/5 1185/1/5
f 1190/1/5 1186/1/5 1189/1/5
f 1191/1/5 1188/1/5 1187/1/5
f 1192/1/5 1188/1/5 1191/1/5
f 1197/1/5 1194/1/5 1193/1/5
f 1198/1/5 1194/1/5 1197/1/5
f 1199/1/5 1196/1/5 1195/1/5
f 1200/1/5 1196/1/5 1199/1/5
f 1205/1/5 1202/1/5 1201/1/5
f 1206/1/5 1202/1/5 1205/1/5
f 1207/1/5 1204/1/5 1203/1/5
f 1208/1/5 1204/1/5 1207/1/5
f 1213/1/5 1210/1/5 1209/1/5
f 1214/1/5 1210/1/5 1213/1/5
f 1215/1/5 1212/1/5 1211/1/5
f 1216/1/5 1212/1/5 1215/1/5
f 1221/1/5 1218/1/5 1217/1/5
f 1222/1/5 1218/1/5 1221/1/5
f 1223/1/5 1220/1/5 1219/1/5
f 1224/1/5 1220/1/5 1223/1/5
f 1227/1/5 1226/1/5 1225/1/5
f 1228/1/5 1226/1/5 1227/1/5
f 1233/1/5 1230/1/5 1229/1/5
f 1234/1/5 1230/1/5 1233/1/5
f 1235/1/5 1232/1/5 1231/1/5
f 1236/1/5 1232/1/5 1235/1/5
f 1237/1/6 1238/1/6 1239/1/6
f 1239/1/6 1238/1/6 1240/1/6
f 1241/1/6 1242/1/6 1245/1/6
f 1245/1/6 1242/1/6 1246/1/6
f 1243/1/6 1244/1/6 1247/1/6
f 1247/1/6 1244/1/6 1248/1/6
f 1249/1/6 1250/1/6 1253/1/6
f 1253/1/6 1250/1/6 1254/1/6
f 1251/1/6 1252/1/6 1255/1/6
f 1255/1/6 1252/1/6 1256/1/6
f 1257/1/6 1258/1/6 1261/1/6
f 1261/1/6 1258/1/6 1262/1/6
f 1259/1/6 1260/1/6 1263/1/6
f 1263/1/6 1260/1/6 1264/1/6
f 1265/1/6 1266/1/6 1269/1/6
f 1269/1/6 1266/1/6 1270/1/6
f 1267/1/6 1268/1/6 1271/1/6
f 1271/1/6 1268/1/6 1272/1/6
f 1273/1/6 1274/1/6 1277/1/6
f 1277/1/6 1274/1/6 1278/1/6
f 1275/1/6 1276/1/6 1279/1/6
f 1279/1/6 1276/1/6 1280/1/6
f 1281/1/6 1282/1/6 1285/1/6
f 1285/1/6 1282/1/6 1286/1/6
f 1283/1/6 1284/1/6 1287/1/6
f 1287/1/6 1284/1/6 1288/1/6
f 1289/1/6 1290/1/6 1293/1/6
f 1293/1/6 1290/1/6 1294/1/6
f 1291/1/6 1292/1/6 1295/1/6
f 1295/1/6 1292/1/6 1296/1/6
f 1297/1/6 1298/1/6 1301/1/6
f 1301/1/6 1298/1/6 1302/1/6
f 1299/1/6 1300/1/6 1303/1/6
f 1303/1/6 1300/1/6 1304/1/6
f 1305/1/6 1306/1/6 1309/1/6
f 1309/1/6 1306/1/6 1310/1/6
f 1307/1/6 1308/1/6 1311/1/6
f 1311/1/6 1308/1/6 1312/1/6
f 1313/1/6 1314/1/6 1317/1/6
f 1317/1/6 1314/1/6 1318/1/6
f 1315/1/6 1316/1/6 1319/1/6
f 1319/1/6 1316/1/6 1320/1/6
f 1321/1/6 1322/1/6 1325/1/6
f 1325/1/6 1322/1/6 1326/1/6
f 1323/1/6 1324/1/6 1327/1/6
f 1327/1/6 1324/1/6 1328/1/6
f 1329/1/6 1330/1/6 1333/1/6
f 1333/1/6 1330/1/6 1334/1/6
f 1331/1/6 1332/1/6 1335/1/6
f 1335/1/6 1332/1/6 1336/1/6
f 1337/1/6 1338/1/6 1341/1/6
f 1341/1/6 1338/1/6 1342/1/6
f 1339/1/6 1340/1/6 1343/1/6
f 1343/1/6 1340/1/6 1344/1/6
f 1345/1/6 1346/1/6 1347/1/6
f 1347/1/6 1346/1/6 1348/1/6
f 1349/1/6 1350/1/6 1353/1/6
f 1353/1/6 1350/1/6 1354/1/6
f 1351/1/6 1352/1/6 1355/1/6
f 1355/1/6 1352/1/6 1356/1/6
f 1357/1/6 1358/1/6 1361/1/6
f 1361/1/6 1358/1/6 1362/1/6
f 1359/1/6 1360/1/6 1363/1/6
f 1363/1/6 1360/1/6 1364/1/6
f 1365/1/6 1366/1/6 1369/1/6
f 1369/1/6 1366/1/6 1370/1/6
f 1367/1/6 1368/1/6 1371/1/6
f 1371/1/6 1368/1/6 1372/1/6
f 1373/1/6 1374/1/6 1377/1/6
f 1377/1/6 1374/1/6 1378/1/6
f 1375/1/6 1376/1/6 1379/1/6
f 1379/1/6 1376/1/6 1380/1/6
f 1381/1/6 1382/1/6 1385/1/6
f 1385/1/6 1382/1/6 1386/1/6
f 1383/1/6 1384/1/6 1387/1/6
f 1387/1/6 1384/1/6 1388/1/6
f 1389/1/6 1390/1/6 1393/1/6
f 1393/1/6 1390/1/6 1394/1/6
f 1391/1/6 1392/1/6 1395/1/6
f 1395/1/6 1392/1/6 1396/1/6
f 1397/1/6 1398/1/6 1401/1/6
f 1401/1/6 1398/1/6 1402/1/6
f 1399/1/6 1400/1/6 1403/1/6
f 1403/1/6 1400/1/6 1404/1/6
f 1405/1/6 1406/1/6 1409/1/6
f 1409/1/6 1406/1/6 1410/1/6
f 1407/1/6 1408/1/6 1411/1/6
f 1411/1/6 1408/1/6 1412/1/6
f 1413/1/6 1414/1/6 1417/1/6
f 1417/1/6 1414/1/6 1418/1/6
f 1415/1/6 1416/1/6 1419/1/6
f 1419/1/6 1416/1/6 1420/1/6
f 1421/1/6 1422/1/6 1425/1/6
f 1425/1/6 1422/1/6 1426/1/6
f 1423/1/6 1424/1/6 1427/1/6
f 1427/1/6 1424/1/6 1428/1/6
f 1429/2/6 1430/2/6 1431/2/6
f 1431/2/6 1430/2/6 1432/2/6
f 1432/2/6 1430/2/6 1433/2/6
f 1433/2/6 1430/2/6 1434/2/6
f 1432/2/6 1433/2/6 1437/2/6
f 1437/2/6 1433/2/6 1438/2/6
f 1438/2/6 1433/2/6 1439/2/6
f 1439/2/6 1433/2/6 1440/2/6
f 1435/2/6 1436/2/6 1443/2/6
f 1438/2/6 1439/2/6 1445/2/6
f 1445/2/6 1439/2/6 1446/2/6
f 1446/2/6 1439/2/6 1447/2/6
f 1447/2/6 1439/2/6 1448/2/6
f 1441/2/6 1442/2/6 1450/2/6
f 1443/2/6 1444/2/6 1451/2/6
f 1446/2/6 1447/2/6 1453/2/6
f 1453/2/6 1447/2/6 1454/2/6
f 1449/2/6 1450/2/6 1456/2/6
f 1451/2/6 1452/2/6 1457/2/6
f 1455/2/6 1456/2/6 1460/2/6
f 1457/2/6 1458/2/6 1461/2/6
f 1451/2/6 1457/2/6 1461/2/6
f 1461/2/6 1458/2/6 1462/2/6
f 1459/2/6 1460/2/6 1463/2/6
f 1460/2/6 1456/2/6 1464/2/6
f 1463/2/6 1460/2/6 1464/2/6
f 1443/2/6 1451/2/6 1465/2/6
f 1451/2/6 1461/2/6 1465/2/6
f 1465/2/6 1461/2/6 1466/2/6
f 1464/2/6 1456/2/6 1469/2/6
f 1456/2/6 1450/2/6 1470/2/6
f 1469/2/6 1456/2/6 1470/2/6
f 1435/2/6 1443/2/6 1471/2/6
f 1443/2/6 1465/2/6 1471/2/6
f 1471/2/6 1465/2/6 1472/2/6
f 1467/2/6 1468/2/6 1474/2/6
f 1474/2/6 1468/2/6 1475/2/6
f 1470/2/6 1450/2/6 1477/2/6
f 1450/2/6 1442/2/6 1478/2/6
f 1477/2/6 1450/2/6 1478/2/6
f 1435/2/6 1471/2/6 1479/2/6
f 1479/2/6 1471/2/6 1480/2/6
f 1475/2/6 1476/2/6 1482/2/6
f 1474/2/6 1475/2/6 1482/2/6
f 1473/2/6 1474/2/6 1482/2/6
f 1482/2/6 1476/2/6 1483/2/6
f 1478/2/6 1442/2/6 1485/2/6
f 1485/2/6 1442/2/6 1486/2/6
f 1483/2/6 1484/2/6 1488/2/6
f 1481/2/6 1482/2/6 1488/2/6
f 1482/2/6 1483/2/6 1488/2/6
f 1488/2/6 1484/2/6 1489/2/6
f 1487/2/6 1488/2/6 1491/2/6
f 1489/2/6 1490/2/6 1491/2/6
f 1488/2/6 1489/2/6 1491/2/6
f 1491/2/6 1490/2/6 1492/2/6
f 1493/1/6 1494/1/6 1495/1/6
f 1495/1/6 1494/1/6 1496/1/6
f 1493/1/6 1495/1/6 1497/1/6
f 1496/1/6 1494/1/6 1500/1/6
f 1497/1/6 1498/1/6 1501/1/6
f 1493/1/6 1497/1/6 1501/1/6
f 1501/1/6 1498/1/6 1502/1/6
f 1502/1/6 1498/1/6 1503/1/6
f 1499/1/6 1500/1/6 1506/1/6
f 1500/1/6 1494/1/6 1507/1/6
f 1506/1/6 1500/1/6 1507/1/6
f 1507/1/6 1494/1/6 1508/1/6
f 1503/1/6 1504/1/6 1509/1/6
f 1502/1/6 1503/1/6 1509/1/6
f 1509/1/6 1504/1/6 1510/1/6
f 1510/1/6 1504/1/6 1511/1/6
f 1505/1/6 1506/1/6 1514/1/6
f 1506/1/6 1507/1/6 1514/1/6
f 1514/1/6 1507/1/6 1515/1/6
f 1515/1/6 1507/1/6 1516/1/6
f 1511/1/6 1512/1/6 1517/1/6
f 1510/1/6 1511/1/6 1517/1/6
f 1517/1/6 1512/1/6 1518/1/6
f 1518/1/6 1512/1/6 1519/1/6
f 1514/1/6 1515/1/6 1520/1/6
f 1513/1/6 1514/1/6 1520/1/6
f 1520/1/6 1515/1/6 1521/1/6
f 1521/1/6 1515/1/6 1522/1/6
f 1518/1/6 1519/1/6 1523/1/6
f 1520/1/6 1521/1/6 1523/1/6
f 1519/1/6 1520/1/6 1523/1/6
f 1523/1/6 1521/1/6 1524/1/6
f 1524/1/6 1521/1/6 1525/1/6
f 1525/1/6 1521/1/6 1526/1/6
f 1524/1/6 1525/1/6 1528/1/6
f 1528/1/6 1525/1/6 1529/1/6
f 1527/1/6 1528/1/6 1532/1/6
f 1529/1/6 1530/1/6 1532/1/6
f 1528/1/6 1529/1/6 1532/1/6
f 1532/1/6 1530/1/6 1533/1/6
f 1533/1/6 1530/1/6 1534/1/6
f 1534/1/6 1530/1/6 1535/1/6
f 1531/1/6 1532/1/6 1538/1/6
f 1532/1/6 1533/1/6 1538/1/6
f 1538/1/6 1533/1/6 1539/1/6
f 1539/1/6 1533/1/6 1540/1/6
f 1534/1/6 1535/1/6 1541/1/6
f 1535/1/6 1536/1/6 1541/1/6
f 1541/1/6 1536/1/6 1542/1/6
f 1542/1/6 1536/1/6 1543/1/6
f 1493/1/6 1501/1/6 1545/1/6
f 1538/1/6 1539/1/6 1546/1/6
f 1537/1/6 1538/1/6 1546/1/6
f 1546/1/6 1539/1/6 1547/1/6
f 1547/1/6 1539/1/6 1548/1/6
f 1543/1/6 1544/1/6 1549/1/6
f 1542/1/6 1543/1/6 1549/1/6
f 1549/1/6 1544/1/6 1550/1/6
f 1550/1/6 1544/1/6 1551/1/6
f 1508/1/6 1494/1/6 1552/1/6
f 1546/1/6 1547/1/6 1553/1/6
f 1545/1/6 1546/1/6 1553/1/6
f 1553/1/6 1547/1/6 1554/1/6
f 1550/1/6 1551/1/6 1555/1/6
f 1551/1/6 1552/1/6 1555/1/6
f 1555/1/6 1552/1/6 1556/1/6
f 1545/1/6 1553/1/6 1557/1/6
f 1556/1/6 1552/1/6 1558/1/6
f 1545/1/6 1557/1/6 1559/1/6
f 1557/1/6 1558/1/6 1559/1/6
f 1493/1/6 1545/1/6 1559/1/6
f 1558/1/6 1552/1/6 1560/1/6
f 1559/1/6 1558/1/6 1560/1/6
f 1552/1/6 1494/1/6 1560/1/6
