[gd_scene load_steps=7 format=2]

[ext_resource path="res://assets/building4-1.png" type="Texture" id=1]
[ext_resource path="res://assets/building-new-4-0.obj" type="ArrayMesh" id=2]
[ext_resource path="res://buildingScenes/Grafitti.tscn" type="PackedScene" id=3]
[ext_resource path="res://buildingScenes/Building.gd" type="Script" id=4]
[ext_resource path="res://assets/building-new-4-0.png" type="Texture" id=5]

[sub_resource type="SpatialMaterial" id=1]
albedo_texture = ExtResource( 5 )

[node name="Building2" type="Spatial"]
script = ExtResource( 4 )

[node name="MeshInstance2" type="MeshInstance" parent="."]
transform = Transform( 0.1, 0, 0, 0, 0.1, 0, 0, 0, 0.1, 0, 0.6, -0.578 )
mesh = ExtResource( 2 )
material/0 = SubResource( 1 )

[node name="Sprite3D" type="Sprite3D" parent="."]
transform = Transform( 1, 0, 0, 0, 1, 0, 0, 0, 1, 0.018, 0, 0.011 )
centered = false
offset = Vector2( -96, 0 )
shaded = true
texture = ExtResource( 1 )

[node name="Grafitti" parent="." instance=ExtResource( 3 )]
transform = Transform( 1, 0, 0, 0, 1, 0, 0, 0, 1, -0.522823, 0.198563, 0.014 )

[node name="Grafitti2" parent="." instance=ExtResource( 3 )]
transform = Transform( 1, 0, 0, 0, 1, 0, 0, 0, 1, -0.644332, 0.421796, 0.0177996 )
